Division,WeightClassKg,Place,Name,Team,BodyweightKg,Best3SquatKg,Best3BenchKg,Best3DeadliftKg,TotalKg,Equipment,Event,Sex
Boys,51.71,1,Dylan Elkins,Needville,51.03,154.22,106.59,156.49,417.3,Single-ply,SBD,M
Boys,51.71,2,Tucker Stout,Bridge City,51.39,120.2,65.77,138.35,324.32,Single-ply,SBD,M
Boys,51.71,3,Fernando Valdez,Needville,50.85,97.52,63.5,124.74,285.76,Single-ply,SBD,M
Boys,51.71,4,Garrett Kelso,Splendora,51.12,99.79,49.9,113.4,263.08,Single-ply,SBD,M
Boys,51.71,5,Corey Frazier,Jasper,51.07,90.72,43.09,111.13,244.94,Single-ply,SBD,M
Boys,51.71,6,Layton Fitch,Coldspring-Oakhurst,49.76,83.91,52.16,99.79,235.87,Single-ply,SBD,M
Boys,51.71,DQ,Nahuel Lizardo,Jasper,49.35,90.72,,,,Single-ply,SBD,M
Boys,51.71,DQ,Trent Morgan,Kirbyville,47.67,,,,,Single-ply,SBD,M
Boys,55.79,1,Jacob Ryder,Needville,55.34,127.01,81.65,154.22,362.87,Single-ply,SBD,M
Boys,55.79,2,Jance Guynes,Shepherd,55.38,127.01,72.57,147.42,347,Single-ply,SBD,M
Boys,55.79,3,Drevion Cooper,Coldspring-Oakhurst,54.84,129.27,68.04,142.88,340.19,Single-ply,SBD,M
Boys,55.79,4,Kz Smith,Coldspring-Oakhurst,52.44,124.74,65.77,138.35,328.85,Single-ply,SBD,M
Boys,59.87,5,Harley Hnatek,Splendora,56.02,127.01,61.23,140.61,328.85,Single-ply,SBD,M
Boys,55.79,6,Shannon Davis,Kirbyville,55.66,111.13,61.23,127.01,299.37,Single-ply,SBD,M
Boys,55.79,NS,Charles Dickerson,Huffman Hargrave,,,,,,Single-ply,SBD,M
Boys,55.79,DQ,Flip Cauley,Kirbyville,55.75,,,,,Single-ply,SBD,M
Boys,55.79,DQ,Royce Horn,Sour Lake Hardin-Jefferson,55.66,,,,,Single-ply,SBD,M
Boys,55.79,DQ,Steven Cook,Shepherd,55.07,106.59,68.04,,,Single-ply,SBD,M
Boys,59.87,1,Michael Latapie,Palacios,59.87,172.37,136.08,176.9,485.34,Single-ply,SBD,M
Boys,59.87,2,Reagan Ficken,Orangefield,57.42,147.42,83.91,151.95,383.29,Single-ply,SBD,M
Boys,59.87,3,Isaac Cervantes,Needville,58.51,131.54,70.31,151.95,353.8,Single-ply,SBD,M
Boys,59.87,4,Ashtin Reed,Bridge City,58.97,117.93,90.72,133.81,342.46,Single-ply,SBD,M
Boys,59.87,5,Gilberto Romero,Shepherd,59.01,115.67,68.04,131.54,315.25,Single-ply,SBD,M
Boys,59.87,NS,Chris Eason,Splendora,,,,,,Single-ply,SBD,M
Boys,59.87,NS,JaMadison Cross,Coldspring-Oakhurst,,,,,,Single-ply,SBD,M
Boys,59.87,DQ,Josh Vasquez,Cleveland,59.87,,,,,Single-ply,SBD,M
Boys,59.87,DQ,Josh Courvelle,Shepherd,59.65,129.27,86.18,,,Single-ply,SBD,M
Boys,67.13,DQ,Corey Fuller,Shepherd,59.96,115.67,79.38,,,Single-ply,SBD,M
Boys,67.13,1,Decorian Smith,Kirbyville,67.04,183.7,111.13,226.8,521.63,Single-ply,SBD,M
Boys,67.13,2,Jose Jimenez,Palacios,65.73,192.78,117.93,192.78,503.49,Single-ply,SBD,M
Boys,67.13,3,Nate Jones,Shepherd,62.55,170.1,104.33,181.44,455.86,Single-ply,SBD,M
Boys,67.13,4,Chance Mays,Jasper,66.54,174.63,88.45,190.51,453.59,Single-ply,SBD,M
Boys,67.13,5,Garrett Hawthorne,Cleveland Tarkington,64.32,158.76,95.25,183.7,437.72,Single-ply,SBD,M
Boys,67.13,6,Dionte Robinson,Liberty,67.13,151.95,92.99,188.24,433.18,Single-ply,SBD,M
Boys,67.13,7,Tremaine Anderson,West Orange-Stark,64.14,161.03,90.72,172.37,424.11,Single-ply,SBD,M
Boys,67.13,NS,Kaleb Franklin,West Orange-Stark,,,,,,Single-ply,SBD,M
Boys,67.13,NS,Jesse Canell,Stafford,,,,,,Single-ply,SBD,M
Boys,67.13,DQ,Deroderick Hadnot,Jasper,62.87,190.51,,,,Single-ply,SBD,M
Boys,74.84,1,Britton Lindsey,West Orange-Stark,72.8,226.8,127.01,249.48,603.28,Single-ply,SBD,M
Boys,74.84,2,Matthew Nguyen,Palacios,73.66,240.4,120.2,235.87,596.47,Single-ply,SBD,M
Boys,74.84,3,Daniel Perrigin,Cleveland Tarkington,73.53,208.65,124.74,210.92,544.31,Single-ply,SBD,M
Boys,74.84,4,Ontrevon Cooper,Coldspring-Oakhurst,74.75,197.31,117.93,183.7,498.95,Single-ply,SBD,M
Boys,74.84,5,Jeremy Kennebrew,Kirbyville,74.07,192.78,120.2,181.44,494.42,Single-ply,SBD,M
Boys,82.1,6,Luis Guzman,Cleveland,75.07,192.78,106.59,190.51,489.88,Single-ply,SBD,M
Boys,74.84,7,Colby Trahan,Bridge City,72.44,192.78,86.18,183.7,462.66,Single-ply,SBD,M
Boys,74.84,8,Noah Seaman,Palacios,71.94,167.83,90.72,172.37,430.91,Single-ply,SBD,M
Boys,74.84,NS,Matthew Lackey,West Orange-Stark,,,,,,Single-ply,SBD,M
Boys,74.84,NS,Ty Higginbothom,Splendora,,,,,,Single-ply,SBD,M
Boys,74.84,NS,Aric Foster,Liberty,,192.78,,,,Single-ply,SBD,M
Boys,82.1,1,Arthur Maxwell,Shepherd,76.38,235.87,111.13,213.19,560.19,Single-ply,SBD,M
Boys,82.1,2,David Saucedo,Shepherd,76.7,210.92,129.27,217.72,557.92,Single-ply,SBD,M
Boys,82.1,3,Joe Lynch,West Orange-Stark,76.93,197.31,131.54,215.46,544.31,Single-ply,SBD,M
Boys,82.1,4,Dalton Horn,Sour Lake Hardin-Jefferson,80.47,197.31,142.88,197.31,537.51,Single-ply,SBD,M
Boys,82.1,5,Devonta Hawthorne,Jasper,79.06,197.31,133.81,201.85,532.97,Single-ply,SBD,M
Boys,82.1,6,Kade Smith,Silsbee,77.97,174.63,124.74,229.06,528.44,Single-ply,SBD,M
Boys,82.1,7,Jhayllien Monette,West Orange-Stark,80.01,188.24,111.13,217.72,517.1,Single-ply,SBD,M
Boys,82.1,8,Johnathon Winfield,Liberty,80.97,195.04,108.86,195.04,498.95,Single-ply,SBD,M
Boys,82.1,DQ,Luke Mangum,Liberty,80.38,,,,,Single-ply,SBD,M
Boys,82.1,DQ,Jacob Cook,Splendora,76.97,,,,,Single-ply,SBD,M
Boys,82.1,DQ,Markeith Cauley,Jasper,79.42,195.04,131.54,,,Single-ply,SBD,M
Boys,89.81,1,Terrence Cuney,Jasper,89.09,208.65,142.88,213.19,564.72,Single-ply,SBD,M
Boys,89.81,2,Luis Escobedo,Needville,85.18,217.72,129.27,199.58,546.58,Single-ply,SBD,M
Boys,89.81,3,Ian Putman,Orangefield,85.59,201.85,136.08,204.12,542.04,Single-ply,SBD,M
Boys,89.81,4,Juan Lopez,Palacios,87,192.78,117.93,229.06,539.77,Single-ply,SBD,M
Boys,89.81,5,Blake Whitton,Cleveland,87.04,208.65,149.69,181.44,539.77,Single-ply,SBD,M
Boys,89.81,6,Justin Mays,Jasper,88.59,197.31,127.01,197.31,521.63,Single-ply,SBD,M
Boys,89.81,7,DeAnthony Cuney,Jasper,89.4,170.1,133.81,190.51,494.42,Single-ply,SBD,M
Boys,89.81,8,Kyle Ray,Splendora,86.32,190.51,115.67,185.97,492.15,Single-ply,SBD,M
Boys,89.81,DQ,Johnny Reyes,Stafford,86.82,,,,,Single-ply,SBD,M
Boys,99.79,1,Lawrence Gilmore,West Orange-Stark,96.43,229.06,129.27,263.08,621.42,Single-ply,SBD,M
Boys,99.79,2,Zach Cole #2,Bridge City,94.76,215.46,142.88,192.78,551.11,Single-ply,SBD,M
Boys,99.79,3,Nick Goza,Needville,96.48,195.04,117.93,217.72,530.7,Single-ply,SBD,M
Boys,99.79,4,Bryan Lopez,Orangefield,97.07,210.92,108.86,192.78,512.56,Single-ply,SBD,M
Boys,109.77,5,Jose Perales,Liberty,99.88,199.58,106.59,206.38,512.56,Single-ply,SBD,M
Boys,99.79,6,Daniel Woodson,West Orange-Stark,91.76,206.38,102.06,201.85,510.29,Single-ply,SBD,M
Boys,99.79,7,Kyle Dunk,Needville,93.49,185.97,115.67,174.63,476.27,Single-ply,SBD,M
Boys,99.79,8,Jerrod Watkins,Orangefield,98.34,199.58,108.86,158.76,467.2,Single-ply,SBD,M
Boys,99.79,9,Chris Baker,Shepherd,97.93,163.29,102.06,174.63,439.98,Single-ply,SBD,M
Boys,99.79,10,Jj Swinford,Coldspring-Oakhurst,95.57,163.29,104.33,165.56,433.18,Single-ply,SBD,M
Boys,99.79,NS,Casey Johnson,Huffman Hargrave,,,,,,Single-ply,SBD,M
Boys,109.77,1,Adam Aucoin,Palacios,109.27,319.78,181.44,235.87,737.09,Single-ply,SBD,M
Boys,109.77,2,David Hollyfield,Silsbee,103.42,238.14,151.95,233.6,623.69,Single-ply,SBD,M
Boys,109.77,3,Joe Stover,Coldspring-Oakhurst,106.59,238.14,154.22,215.46,607.81,Single-ply,SBD,M
Boys,109.77,4,Jonathan Swint,Coldspring-Oakhurst,109,210.92,133.81,201.85,546.58,Single-ply,SBD,M
Boys,109.77,5,Anthony Orr-Wade,Jasper,106.64,208.65,129.27,201.85,539.77,Single-ply,SBD,M
Boys,109.77,6,Kevin Houston,Jasper,100.24,204.12,117.93,188.24,510.29,Single-ply,SBD,M
Boys,109.77,7,Brady Barbay,Coldspring-Oakhurst,103.65,170.1,99.79,183.7,453.59,Single-ply,SBD,M
Boys,109.77,8,Sam Collins,Cleveland Tarkington,106.23,181.44,108.86,154.22,444.52,Single-ply,SBD,M
Boys,109.77,DQ,Randol Wiggins,Liberty,102.19,210.92,,,,Single-ply,SBD,M
Boys,109.77,DQ,Ian Jenkins,West Orange-Stark,109.59,229.06,176.9,,,Single-ply,SBD,M
Boys,124.74+,1,Charlie Courvelle,Shepherd,124.78,317.51,192.78,254.01,764.3,Single-ply,SBD,M
Boys,124.74,2,Bret Treadway,Silsbee,111.45,265.35,170.1,258.55,694,Single-ply,SBD,M
Boys,124.74,3,Greg Dunham,Coldspring-Oakhurst,124.01,249.48,142.88,210.92,603.28,Single-ply,SBD,M
Boys,124.74,4,Doc Maricle,Silsbee,123.24,215.46,167.83,215.46,598.74,Single-ply,SBD,M
Boys,124.74,5,Josh Sterling,Liberty,124.15,249.48,122.47,210.92,582.87,Single-ply,SBD,M
Boys,124.74,6,Jose Reyes,Stafford,124.24,233.6,136.08,197.31,566.99,Single-ply,SBD,M
Boys,124.74,7,Perry Stevens,Liberty,114.49,219.99,124.74,210.92,555.65,Single-ply,SBD,M
Boys,124.74,8,Von Cross,Coldspring-Oakhurst,121.43,215.46,129.27,204.12,548.85,Single-ply,SBD,M
Boys,124.74,9,Jerquis Beasley,West Orange-Stark,116.03,199.58,142.88,190.51,532.97,Single-ply,SBD,M
Boys,124.74,DQ,Josh Kelley,Cleveland,116.26,222.26,140.61,,,Single-ply,SBD,M
Boys,124.74+,1,Ryan Allen #1,West Orange-Stark,152.36,312.98,176.9,322.05,811.93,Single-ply,SBD,M
Boys,124.74+,2,Omar Tebo,Liberty,143.83,294.84,158.76,265.35,718.94,Single-ply,SBD,M
Boys,124.74+,3,Nolan Walker,Coldspring-Oakhurst,128.19,260.82,151.95,238.14,650.91,Single-ply,SBD,M
Boys,124.74+,4,Jarvis Adams,Jasper,144.51,224.53,145.15,244.94,614.62,Single-ply,SBD,M
Boys,124.74+,5,Jordin Laughlin,Hamshire-Fannett,129.5,226.8,136.08,226.8,589.67,Single-ply,SBD,M
Boys,124.74+,6,Pj Gloston,Sour Lake Hardin-Jefferson,133.9,235.87,145.15,183.7,564.72,Single-ply,SBD,M
Boys,124.74+,7,Ashton Limbrick,Jasper,129.95,217.72,117.93,206.38,542.04,Single-ply,SBD,M
Boys,124.74+,8,Avonte Roberts,Liberty,133.95,217.72,115.67,172.37,505.76,Single-ply,SBD,M
Boys,124.74+,9,Kevin Keasling,Shepherd,126.1,215.46,90.72,192.78,498.95,Single-ply,SBD,M
Boys,124.74+,DQ,Jeremy Turk,Kirbyville,130.86,,,,,Single-ply,SBD,M
