Place,Name,Division,Age,Sex,WeightClassKg,BodyweightKg,Country,Squat1Kg,Squat2Kg,Squat3Kg,Best3SquatKg,Squat4Kg,Bench1Kg,Bench2Kg,Bench3Kg,Best3BenchKg,Bench4Kg,Deadlift1Kg,Deadlift2Kg,Deadlift3Kg,Best3DeadliftKg,Deadlift4Kg,TotalKg,Equipment,Event
1,Yury Belkin,Open,26,M,110,104,Russia,,,,,,,,,,,450,-470,,450,,450,Straps,D
1,Anna Romanova,Open,33,F,56,55.5,Russia,80,85,92.5,92.5,,47.5,50,-52.5,50,,120,127.5,-132.5,127.5,,270,Raw,SBD
1,Marina Belyak,Masters 45-49,49,F,56,55.7,Russia,47.5,-52.5,52.5,52.5,,37.5,42.5,,42.5,,75,-80,-80,75,,170,Raw,SBD
1,Olga Kostrova,Open,42,F,67.5,65.9,Russia,140,145,-150,145,,-90,90,95,95,,160,175,-180,175,,415,Raw,SBD
2,Tatyana Zlydennaya,Open,29,F,67.5,63.7,Russia,-100,100,105,105,,-55,55,-60,55,,-135,135,140,140,,300,Raw,SBD
1,Elina Chernina,Open,29,F,75,74.5,Russia,132.5,142.5,-150,142.5,,87.5,92.5,95,95,,152.5,165,177.5,177.5,,415,Raw,SBD
2,Viktoriya Doga,Open,34,F,75,74.9,Russia,-115,120,127.5,127.5,,90,95,97.5,97.5,,165,180,-192.5,180,,405,Raw,SBD
3,Mariya Klintsova,Open,29,F,75,72.9,Russia,-115,115,120,120,,65,-70,70,70,,140,145,,145,,335,Raw,SBD
1,Viktoriya Knysh,Open,33,F,90,87.9,Russia,160,-170,-170,160,,150,-160,160,160,-165,210,220,230,230,,550,Raw,SBD
1,Irina Yaroshenko,Open,30,F,90+,104.4,Russia,185,195,205,205,,105,112.5,117.5,117.5,,225,237.5,247.5,247.5,,570,Raw,SBD
1,Eduard Shungarov,Juniors 20-23,22,M,67.5,65.9,Russia,85,100,110,110,,75,85,-92.5,85,,90,112.5,125,125,,320,Raw,SBD
1,Leontiy Sanin,Open,24,M,67.5,65.7,Russia,102.5,110,115,115,,-87.5,87.5,-95,87.5,,125,140,152.5,152.5,,355,Raw,SBD
1,Ernest Ruzin,Masters 75-79,79,M,67.5,62.1,Israel,117.5,-127.5,127.5,127.5,,70,72.5,-75,72.5,,160,165,,165,,365,Raw,SBD
1,Dmitriy Kulikov,Juniors 20-23,21,M,75,72.2,Russia,165,-175,-175,165,,115,-125,-125,115,,175,185,-190,185,,465,Raw,SBD
1,Aleksey Kozinets,Open,30,M,75,71.5,Russia,155,165,170,170,,120,127.5,-132.5,127.5,,185,-195,200,200,,497.5,Raw,SBD
1,Ivan Yeginov,Teen 16-17,17,M,82.5,79.2,Russia,-165.5,-165.5,165.5,165.5,,120,130,135,135,140,190,200,210,210,-220,510.5,Raw,SBD
1,Vladislav Suleymanov,Juniors 20-23,21,M,82.5,82.4,Russia,200,220,-225,220,,130,140,147.5,147.5,,240,260,270,270,,637.5,Raw,SBD
2,Pavel Sheff,Juniors 20-23,23,M,82.5,78.1,Russia,185,-200,200,200,,140,150,-155,150,,-230,245,-255,245,,595,Raw,SBD
1,Arkadiy Shalokha,Open,33,M,82.5,81.5,Ukraine,270,285,295,295,,175,-185,,175,,280,-300,-300,280,,750,Raw,SBD
2,Maksim Koval,Open,24,M,82.5,81.8,Ukraine,257.5,267.5,275,275,,137.5,145,-150,145,,265,277.5,-280,277.5,,697.5,Raw,SBD
3,Pavel Zubkov,Open,30,M,82.5,81.5,Russia,-220,230,-237.5,230,,145,152.5,-155,152.5,,290,300,305,305,,687.5,Raw,SBD
4,Vadim Gutsu,Open,33,M,82.5,81,Russia,210,220,225,225,,150,155,-157.5,155,,250,260,270,270,,650,Raw,SBD
5,Aleksandr Skorobogatov,Open,35,M,82.5,82.4,Russia,-250,250,,250,,140,145,-150,145,,220,240,-260,240,,635,Raw,SBD
1,Pekka Anttila,Masters 50-54,51,M,82.5,81.5,Finland,170,,,170,,100.5,,,100.5,,-200,200,220.5,220.5,,491,Raw,SBD
1,Anatoly Shnaider,Masters 55-59,59,M,82.5,77.5,Israel,160,-170,175,175,,115,122.5,,122.5,,192.5,205,210,210,,507.5,Raw,SBD
1,Andrey Udalov,Juniors 20-23,22,M,90,89.3,Russia,250,-260,-260,250,,180,190,-195,190,,260,270,275,275,,715,Raw,SBD
2,Aleksandr Cherednichenko,Open,25,M,90,89.8,Russia,240,250,-255,250,,160,167.5,172.5,172.5,,275,285,295,295,,717.5,Raw,SBD
3,Andrey Udalov,Open,22,M,90,89.3,Russia,250,-260,-260,250,,180,190,-195,190,,260,270,275,275,,715,Raw,SBD
4,Aleksey Sheykin,Open,28,M,90,89.5,Belarus,210,220,230,230,,160,-167.5,167.5,167.5,,250,265,275,275,,672.5,Raw,SBD
5,Yuriy Sakharov,Open,30,M,90,89.7,Russia,230,245,252.5,252.5,,135,-142.5,142.5,142.5,,245,260,-270,260,,655,Raw,SBD
6,Gennadiy Postanogov,Open,32,M,90,88.9,Russia,190,205,-210,205,,155,162.5,165,165,,240,252.5,257.5,257.5,,627.5,Raw,SBD
7,Paraskevas Mitropoulos,Open,29,M,90,89.2,Greece,220,235,245,245,,-120,122.5,-125,122.5,,240,250,-260,250,,617.5,Raw,SBD
8,Vladimir Presnyakov,Open,27,M,90,86.4,Russia,190,-205,-205,190,,140,-147.5,-147.5,140,,240,-247.5,-247.5,240,,570,Raw,SBD
DQ,Igor Sidorov,Open,29,M,90,89.8,Russia,235,-245,-245,235,,185,192.5,-197.5,192.5,,-225,-230,-240,,,,Raw,SBD
1,Aleksey Sizov,Open,36,M,100,94,Russia,-250,265,-272.5,265,,165,185,200,200,,280,297.5,-305,297.5,,762.5,Raw,SBD
2,Denis Podvizhnoy,Open,39,M,100,98.7,Russia,220,230,,230,,170,180,-185,180,,270,280,-290,280,,690,Raw,SBD
3,Sergey Mishchenko,Open,28,M,100,98.5,Ukraine,-220,220,235,235,,150,-157.5,-157.5,150,,260,-272.5,-272.5,260,,645,Raw,SBD
4,Sergey Moiseyev,Open,39,M,100,98.7,Russia,200,210,220,220,,145,-150,150,150,,252.5,265,-270,265,,635,Raw,SBD
5,Nikolay Zamp,Open,26,M,100,96.3,Russia,210,220,-225,220,,140,-145,145,145,,230,240,-245,240,,605,Raw,SBD
6,Dmitriy Melikhov,Open,37,M,100,94.3,Russia,195,210,220,220,,137.5,145,150,150,,215,-230,230,230,,600,Raw,SBD
1,Ilya Ushkov,Masters 40-44,40,M,100,98.8,Russia,242.5,257.5,272.5,272.5,,167.5,177.5,-185,177.5,,-267.5,267.5,-282.5,267.5,,717.5,Raw,SBD
2,Igor Chupryakov,Masters 40-44,41,M,100,97.8,Russia,215,225,232.5,232.5,,182.5,187.5,190,190,,240,255,260,260,,682.5,Raw,SBD
3,Aleksandr Shishkin,Masters 40-44,41,M,100,96.5,Russia,217.5,-227.5,227.5,227.5,,150,157.5,-162.5,157.5,,220,230,240,240,245.5,625,Raw,SBD
1,Saul Salazar,Masters 50-54,52,M,100,97.5,Colombia,190,215,-225,215,,135,145,155,155,,220,-250,-265,220,,590,Raw,SBD
1,Aleksandr Astakhov,Teen 18-19,19,M,110,103.5,Russia,200,210,220,220,,120,130,-137.5,130,,190,205,220,220,,570,Raw,SBD
1,Vitaliy Bobrov,Open,35,M,110,101,Russia,290,-305,-305,290,,190,205,-212.5,205,,270,295,305,305,,800,Raw,SBD
2,Kirill Kovalenko,Open,24,M,110,106.5,Russia,242.5,262.5,-275,262.5,,185,-195,195,195,,-240,240,260,260,,717.5,Raw,SBD
3,Valeriy Kosterin,Open,25,M,110,109.5,Russia,230,237.5,242.5,242.5,,172.5,177.5,180,180,,-260,260,-277.5,260,,682.5,Raw,SBD
1,Igor Sharapov,Masters 45-49,45,M,110,109.7,Russia,240,255,-260,255,,185,-195,-195,185,,-260,-260,260,260,,700,Raw,SBD
1,Mikhail Sekov,Open,30,M,125,111.4,Russia,275,-290,295,295,,180,185,-195,185,,290,305,315,315,,795,Raw,SBD
2,Aleksandr Sharov,Open,33,M,125,113,Russia,240,255,-265,255,,180,200,-205,200,,280,290,-300,290,,745,Raw,SBD
1,Igor Alferov,Masters 40-44,40,M,140,134.4,Russia,210,220,230,230,,150,155,160,160,,210,225,240,240,,630,Raw,SBD
1,Maria Ramos #1,Open,26,F,48,46.7,Argentina,145,-155,160,160,172,72.5,77.5,80.5,80.5,-82.5,145,155,162.5,162.5,170,403,Wraps,SBD
1,Lucila McMahon,Masters 70-74,74,F,48,45,USA,-55,-57.5,57.5,57.5,,35,-37.5,-37.5,35,,72.5,77.5,82.5,82.5,,175,Wraps,SBD
1,Mariša Golob,Open,26,F,56,55.2,Slovenia,145,-155,-155,145,,85,-90,-90,85,,155,165,170,170,,400,Wraps,SBD
1,Anastasiya Shabanova,Teen 16-17,16,F,60,59.6,Russia,95,107.5,117.5,117.5,,50,55,60,60,,85,95,112.5,112.5,,290,Wraps,SBD
1,Polina Belyayeva,Open,29,F,60,59.5,Russia,110,-120,120,120,,55,-62.5,-62.5,55,,100,110,120,120,,295,Wraps,SBD
1,Caterine González,Teen 18-19,19,F,67.5,64.8,Colombia,180,190,-197.5,190,,-97.5,100,-105,100,,190,205,212.5,212.5,220,502.5,Wraps,SBD
1,Caterine González,Open,19,F,67.5,64.8,Colombia,180,190,-197.5,190,,-97.5,100,-105,100,,190,205,212.5,212.5,220,502.5,Wraps,SBD
1,Anna Khudayarov,Open,28,F,75,74.3,Finland,180,200,-210,200,,110,120,,120,,210,,,210,,530,Wraps,SBD
1,Georgiy Ukryukov,Open,25,M,60,58.8,Russia,120,-140,-140,120,,80,95,-105,95,,120,137.5,-140,137.5,,352.5,Wraps,SBD
1,Sami Vaskelainen,Open,32,M,67.5,66.7,Finland,205,210,215,215,223,115,122.5,-127.5,122.5,,240,245,,245,,582.5,Wraps,SBD
2,Aleksandr Rek,Open,29,M,67.5,67.2,Russia,207.5,217.5,-225,217.5,,112.5,120,-122.5,120,,185,197.5,-202.5,197.5,,535,Wraps,SBD
1,Pavel Zhukov,Juniors 20-23,22,M,75,73.2,Russia,-180,-180,180,180,,110,120,125,125,,200,220,,220,,525,Wraps,SBD
1,Dmitriy Teplyakov,Open,42,M,75,72.8,Russia,195,202.5,205,205,,137.5,142.5,-145,142.5,,215,222.5,232.5,232.5,,580,Wraps,SBD
1,Erni Gregorčič,Masters 40-44,40,M,75,74.4,Slovenia,180,200,-205,200,,135,-145,145,145,,220,235,241,241,,586,Wraps,SBD
2,Dmitriy Teplyakov,Masters 40-44,42,M,75,72.8,Russia,195,202.5,205,205,,137.5,142.5,-145,142.5,,215,222.5,232.5,232.5,,580,Wraps,SBD
1,Sieppi Eetu,Juniors 20-23,22,M,82.5,82.3,Finland,255,270,280,280,,155,165,170,170,,260,285,301,301,,751,Wraps,SBD
2,Vladislav Ilchenko,Juniors 20-23,20,M,82.5,82.4,Moldova,210,225,235,235,,130,140,142.5,142.5,,210,225,-230,225,,602.5,Wraps,SBD
3,Aleksandr Romashin,Juniors 20-23,23,M,82.5,79.4,Russia,185,205,215,215,,110,115,120,120,,215,-230,230,230,,565,Wraps,SBD
DQ,Oleg Novogolub,Juniors 20-23,21,M,82.5,78.6,Moldova,-190,190,-220,190,,140,147.5,152.5,152.5,,-210,-217.5,-222.5,,,,Wraps,SBD
DQ,Nikita Repin,Juniors 20-23,21,M,82.5,81.3,Russia,-240,-247.5,-247.5,,,,,,,,,,,,,,Wraps,SBD
1,Aleksey Nikulin,Open,34,M,82.5,81.3,Russia,330,-345,-345,330,,170,177.5,-182.5,177.5,,300,315,325,325,-330,832.5,Wraps,SBD
2,Sergey Smirnov,Open,28,M,82.5,81.4,Russia,260,270,280,280,,180,-185,-185,180,,270,280,290,290,,750,Wraps,SBD
3,Stopar Simon,Open,32,M,82.5,81.8,Slovenia,285,295,-306,295,,140,145,147.5,147.5,,260,-270,270,270,,712.5,Wraps,SBD
4,Stanislav Pryakhin,Open,41,M,82.5,82.5,Russia,260,-270,-275,260,,152.5,157.5,-162.5,157.5,,270,285,-287.5,285,,702.5,Wraps,SBD
5,Aleksey Markin,Open,30,M,82.5,81.9,Russia,245,-270,-270,245,,145,155,165,165,,225,235,240,240,,650,Wraps,SBD
6,Sergey Mozhayev,Open,28,M,82.5,82.4,Russia,215,-222.5,-222.5,215,,142.5,147.5,-150,147.5,,220,227.5,-230,227.5,,590,Wraps,SBD
DQ,Oleg Novogolub,Open,21,M,82.5,78.6,Moldova,-190,190,-220,190,,140,147.5,152.5,152.5,,-210,-217.5,-222.5,,,,Wraps,SBD
1,Stanislav Pryakhin,Masters 40-44,41,M,82.5,82.5,Russia,260,-270,-275,260,,152.5,157.5,-162.5,157.5,,270,285,-287.5,285,,702.5,Wraps,SBD
2,Sergey Kandaurov,Masters 40-44,42,M,82.5,82,Russia,180,190,205,205,,145,150,-155,150,,-180,180,195,195,,550,Wraps,SBD
1,Aleksey Yagunov,Masters 45-49,48,M,82.5,81.1,Russia,185,200,-210,200,,-125,125,130,130,,200,210,-220,210,,540,Wraps,SBD
1,Tinoco Albornoz,Masters 50-54,50,M,82.5,82.1,Peru,150,185,-202.5,185,,85,102.5,103,103,103.5,140,162.5,,162.5,,450.5,Wraps,SBD
1,Darko Božak,Juniors 20-23,23,M,90,89.7,Croatia,230,250,260,260,,145,155,160,160,,250,265,-280,265,,685,Wraps,SBD
1,Aleksey Yakushevich,Open,25,M,90,89.9,Russia,280,295,302.5,302.5,,160,175,182.5,182.5,,280,300,-307.5,300,,785,Wraps,SBD
2,Roman Skorobogatchenko,Open,29,M,90,88,Russia,275,295,-300,295,,180,190,-195,190,,275,285,290,290,,775,Wraps,SBD
3,Mikhail Vitovskiy,Open,30,M,90,87,Russia,235,250,-262.5,250,,165,175,182.5,182.5,,250,275,295,295,,727.5,Wraps,SBD
4,Maksim Amanatov,Open,26,M,90,86.2,Russia,205,215,225,225,,135,145,150,150,,260,-275,275,275,,650,Wraps,SBD
5,Pevec Nino,Open,34,M,90,88.7,Slovenia,220,232.5,-240,232.5,,140,145,-150,145,,220,-230,-230,220,,597.5,Wraps,SBD
1,Igor Lipnik,Masters 40-44,42,M,90,89.4,Russia,200,-215,215,215,,150,160,170,170,,215,235,-250,235,,620,Wraps,SBD
1,Luis Zerpa García,Masters 50-54,50,M,90,86.7,Peru,160,170,180,180,,90,95,-100,95,,160,180,195,195,,470,Wraps,SBD
DQ,Ruslan Gaysin,Teen 16-17,17,M,100,99.6,Russia,240,250,-260,250,,-140,-140,-140,,,,,,,,,Wraps,SBD
1,Kirill Anfinogenov,Teen 18-19,18,M,100,94.7,Russia,210,225,-240,225,,150,157.5,165,165,,210,230,240,240,,630,Wraps,SBD
1,Daniil Konyukhov,Juniors 20-23,22,M,100,97.3,Russia,-245,245,-255,245,,165,175,187.5,187.5,,-245,245,255,255,,687.5,Wraps,SBD
1,Aleksandr Osiyev,Open,40,M,100,95.7,Russia,265,-275,275,275,,160,170,-175,170,,275,-285,-285,275,,720,Wraps,SBD
2,Vasiliy Vitovskiy,Open,56,M,100,96.6,Russia,220,235,240,240,,150,160,170,170,,230,240,250,250,,660,Wraps,SBD
3,Yevgeniy Drobotov,Open,29,M,100,96.4,Russia,225,-230,235,235,,145,155,160,160,,210,225,230,230,,625,Wraps,SBD
4,German Tikhonov,Open,24,M,100,92.2,Russia,235,250,,250,,100,-102.5,,100,,215,230,-235,230,,580,Wraps,SBD
5,Aleksey Proskuryakov,Open,32,M,100,97.3,Russia,180,-200,210,210,,120,130,140,140,,190,210,-225,210,,560,Wraps,SBD
1,Aleksandr Osiyev,Masters 40-44,40,M,100,95.7,Russia,265,-275,275,275,,160,170,-175,170,,275,-285,-285,275,,720,Wraps,SBD
1,Valeriy Asaturov,Masters 50-54,50,M,100,98.8,Russia,260,270,275,275,,170,-180,-180,170,,260,-270,270,270,,715,Wraps,SBD
1,Vasiliy Vitovskiy,Masters 55-59,56,M,100,96.6,Russia,220,235,240,240,,150,160,170,170,,230,240,250,250,,660,Wraps,SBD
1,Aleksandr Tsvetkov,Masters 55-59,59,M,100,97.1,Russia,-220,230,242.5,242.5,,115,122.5,127.5,127.5,,230,252.5,-262.5,252.5,,622.5,Wraps,SBD
1,Artem Nikitin,Teen 18-19,18,M,110,107.2,Russia,210,225,-240,225,,115,122.5,-130,122.5,,170,180,190,190,,537.5,Wraps,SBD
1,Andrey Vorivodin,Open,26,M,110,102.2,Russia,325,337.5,-342.5,337.5,,177.5,185,-187.5,185,,285,292.5,300,300,,822.5,Wraps,SBD
2,Oleksandr Chernish,Open,27,M,110,108.5,Ukraine,310,320,-330,320,,202.5,215,-222.5,215,,270,280,-292.5,280,,815,Wraps,SBD
3,Sergey Simakov,Open,32,M,110,106.2,Russia,275,290,300,300,,175,185,192.5,192.5,,280,295,300,300,,792.5,Wraps,SBD
4,Kramm Eduardo,Open,35,M,110,103.7,Brazil,275,285,-290,285,,-165,-165,165,165,,285,295,305,305,,755,Wraps,SBD
5,Pavel Papenkov,Open,36,M,110,104.4,Russia,-255,-265,270,270,,-170,172.5,175,175,,275,-285,285,285,,730,Wraps,SBD
6,Eduard Maksimov,Open,45,M,110,108.5,Russia,245,257.5,267.5,267.5,,185,200,205,205,,245,-260,-260,245,,717.5,Wraps,SBD
7,Mohammed-Azamathulla Mukarrum,Open,39,M,110,101.7,India,240,-255,255,255,,135,145,152.5,152.5,,270,285,292.5,292.5,,700,Wraps,SBD
8,Andrey Zolotarenok,Open,38,M,110,110,Russia,230,-245,250,250,,160,175,-185,175,,220,-240,-240,220,,645,Wraps,SBD
9,Aleksey Averyanov,Open,23,M,110,107.7,Russia,-225,225,,225,,152.5,162.5,-172.5,162.5,,-215,215,-265,215,,602.5,Wraps,SBD
DQ,Konstantin Zadkov,Open,34,M,110,105.1,Russia,-260,-260,,,,,,,,,,,,,,,Wraps,SBD
1,Mohammed-Azamathulla Mukarrum,Submasters 35-39,39,M,110,101.7,India,240,-255,255,255,,135,145,152.5,152.5,,270,285,292.5,292.5,,700,Wraps,SBD
1,Eduard Maksimov,Masters 45-49,45,M,110,108.5,Russia,245,257.5,267.5,267.5,,185,200,205,205,,245,-260,-260,245,,717.5,Wraps,SBD
1,Ulises Aldo,Masters 50-54,50,M,110,104.8,Peru,165,-195,195,195,,142.5,-152.5,-152.5,142.5,,175,200,-210,200,,537.5,Wraps,SBD
1,Grigoriy Bebenin,Juniors 20-23,23,M,125,119.2,Russia,-322.5,330,-352.5,330,,205,217.5,225,225,,307.5,321,-325,321,,876,Wraps,SBD
1,Grigoriy Bebenin,Open,23,M,125,119.2,Russia,-322.5,330,-352.5,330,,205,217.5,225,225,,307.5,321,-325,321,,876,Wraps,SBD
2,Pantelis Sapounakis,Open,36,M,125,117.9,Greece,320,-330,-330,320,,215,-225,-225,215,,300,310,-315,310,,845,Wraps,SBD
3,Athanasios Liouras,Open,34,M,125,118.7,Greece,260,275,282.5,282.5,,165,172.5,-180,172.5,,302.5,312.5,320,320,,775,Wraps,SBD
4,Khabibula Magomedov,Open,36,M,125,114.4,Russia,280,300,-320,300,,170,190,-195,190,,250,270,,270,,760,Wraps,SBD
1,Pantelis Sapounakis,Submasters 35-39,36,M,125,117.9,Greece,320,-330,-330,320,,215,-225,-225,215,,300,310,-315,310,,845,Wraps,SBD
1,Raghavendr-Shivanand Hondadakeri,Open,36,M,140,129,India,270,285,300,300,,135,145,155,155,,270,290,-300,290,,745,Wraps,SBD
1,Raghavendr-Shivanand Hondadakeri,Submasters 35-39,36,M,140,129,India,270,285,300,300,,135,145,155,155,,270,290,-300,290,,745,Wraps,SBD
1,Sergey Odegov,Masters 40-44,40,M,140,139.1,Russia,325,-340,340,340,,210,225,235,235,,320,340,-365,340,,915,Wraps,SBD
1,Yegor Savelyev,Juniors 20-23,21,M,67.5,66.6,Russia,-150,150,170,170,,112.5,122.5,130,130,132.5,145,162.5,175,175,180,475,Single-ply,SBD
1,Vasiliy Tsvetkov,Open,35,M,82.5,81.9,Russia,310,-330,340,340,,205,217.5,225,225,,-260,260,280,280,-300,845,Single-ply,SBD
2,Aleksey Nikulin,Open,34,M,82.5,81.3,Russia,330,,,330,,177.5,,,177.5,,325,,,325,,832.5,Single-ply,SBD
3,Sergey Koryakin,Open,40,M,82.5,80.2,Russia,270,-280,-280,270,,150,-155,-155,150,,-250,250,260,260,,680,Single-ply,SBD
1,Sergey Koryakin,Masters 40-44,40,M,82.5,80.2,Russia,270,-280,-280,270,,150,-155,-155,150,,-250,250,260,260,,680,Single-ply,SBD
1,Mikhail Mironov,Juniors 20-23,22,M,90,89.9,Russia,290,-300,-300,290,,-185,185,-190,185,,280,-290,-290,280,,755,Single-ply,SBD
DQ,Ukrainskiy Stanislav,Open,28,M,90,87.5,Russia,190,200,-210,200,,-130,-130,-130,,,,,,,,,Single-ply,SBD
1,Vladimir Urazov,Masters 45-49,49,M,90,88.1,Russia,-230,-230,230,230,,170,177.5,-182.5,177.5,,240,250,,250,,657.5,Single-ply,SBD
1,Aleksandr Kozlov,Juniors 20-23,22,M,100,91,Russia,280,,,280,,215,,,215,,260,,,260,,755,Single-ply,SBD
1,Ivan Poryadin,Open,34,M,100,98.8,Russia,300,-320,-320,300,,250,-265,265,265,,260,285,-300,285,,850,Single-ply,SBD
2,Aleksandr Kozlov,Open,22,M,100,91,Russia,280,-300,-310,280,,200,210,215,215,,260,-275,-275,260,,755,Single-ply,SBD
3,Timur Akhmetov,Open,30,M,100,96.4,Russia,-245,-245,245,245,,-192.5,192.5,197.5,197.5,,250,260,265,265,,707.5,Single-ply,SBD
4,Yevgeniy Chuykin,Open,24,M,100,98.3,Russia,-255,255,-265,255,,160,167.5,175,175,,260,275,-280,275,,705,Single-ply,SBD
5,Stanislav Arutyunov,Open,36,M,100,99.2,Russia,255,267.5,-275,267.5,,162.5,170,,170,,-235,235,247.5,247.5,,685,Single-ply,SBD
6,Ruslan Magomadov,Masters 50-54,52,M,100,95.4,Russia,195,205,-210,205,,150,-160,160,160,,185,200,210,210,,575,Single-ply,SBD
1,Aleksandr Muratkin,Open,31,M,110,109,Russia,300,310,320,320,,230,240,250,250,,330,347.5,352.5,352.5,,922.5,Single-ply,SBD
2,Roman Zverev,Open,28,M,110,108.3,Russia,330,355,370,370,-377.5,220,-230,,220,,325,-350,-350,325,,915,Single-ply,SBD
1,Aleksey Kurkov,Masters 40-44,40,M,110,106.3,Russia,260,-275,-290,260,,175,185,-195,185,,235,250,-270,250,,695,Single-ply,SBD
1,Nikolay Yemtsev,Masters 45-49,49,M,110,103.3,Russia,240,250,260,260,,160,-167.5,167.5,167.5,,240,255,260,260,,687.5,Single-ply,SBD
1,Andrey Grigoryev,Masters 50-54,51,M,110,106.7,Russia,220,235,-240,235,,165,-175,-175,165,,210,220,-230,220,,620,Single-ply,SBD
1,Aleksandr Lugovoy,Juniors 20-23,21,M,125,117.4,Russia,-310,310,340,340,,210,235,245,245,,290,320,-340,320,,905,Single-ply,SBD
1,Denis Divakov,Open,24,M,125,123.2,Russia,370,390,-400,390,,-320,-320,320,320,330,320,340,360,360,,1070,Single-ply,SBD
1,Bahman Halimimamaghani,Open,32,M,140,126.8,Iran,370,390,405,405,,280,300,320,320,,300,320,-330,320,,1045,Single-ply,SBD
1,Vasiliy Malashkin,Open,24,M,140+,142.6,Russia,-390,390,410,410,-425,290,-300,,290,,340,360,382.5,382.5,-402.5,1082.5,Single-ply,SBD
2,Amir Tavakoli,Open,33,M,140+,150.3,Iran,-400,400,422.5,422.5,,270,290,300,300,-320,300,330,-352.5,330,,1052.5,Single-ply,SBD
1,Viktoriya Grigoryeva,Juniors 20-23,21,F,44,43.5,Russia,,,,,,35,40,-45,40,,65,75,80,80,,120,Raw,BD
1,Svetlana Baker,Masters 60-64,62,F,52,50.7,USA,,,,,,47.5,50,-52.5,50,,110,115,117.5,117.5,,167.5,Raw,BD
1,Mariša Golob,Open,26,F,56,55.2,Slovenia,,,,,,85,-90,-90,85,,155,165,170,170,,255,Raw,BD
1,Alena Klyuyeva,Teen 18-19,19,F,67.5,65.5,Russia,,,,,,40,47.5,-50,47.5,,70,85,95,95,,142.5,Raw,BD
1,Tiivola Nina-Maria,Open,38,F,67.5,65.7,Germany,,,,,,65,75,-87.5,75,,-140,150,-170,150,,225,Raw,BD
1,Anna Khudayarov,Open,28,F,75,74.3,Finland,,,,,,110,120,-124,120,,185,200,210,210,-215.5,330,Raw,BD
1,Hilander Maiju,Masters 55-59,59,F,75,72.3,Finland,,,,,,60,65,70,70,-75,150,155,160,160,162.5,230,Raw,BD
1,Sami Vaskelainen,Open,32,M,67.5,66.7,Finland,,,,,,115,122.5,-127.5,122.5,,240,245,,245,,367.5,Raw,BD
2,Felippe Portugal,Open,33,M,67.5,66.4,Brazil,,,,,,100,105,-110,105,,125,145,160,160,,265,Raw,BD
1,Erni Gregorčič,Open,40,M,75,74.4,Slovenia,,,,,,135,-145,145,145,,220,235,241,241,,386,Raw,BD
2,Aleksey Kozinets,Open,30,M,75,71.5,Russia,,,,,,127.5,,,127.5,,200,,,200,,327.5,Raw,BD
1,Erni Gregorčič,Masters 40-44,40,M,75,74.4,Slovenia,,,,,,135,-145,145,145,,220,235,241,241,,386,Raw,BD
1,Hans-Jürgen Kaule,Masters 60-64,62,M,75,73.3,Germany,,,,,,120,-127.5,127.5,127.5,-130,180,200,-210,200,,327.5,Raw,BD
1,Ruslan Dzhaborov,Open,31,M,82.5,81.6,Russia,,,,,,190,200,-205,200,,-280,280,-300,280,,480,Raw,BD
2,Stanislav Pryakhin,Open,41,M,82.5,82.5,Russia,,,,,,152.5,157.5,-162.5,157.5,,270,285,-287.5,285,,442.5,Raw,BD
3,Stopar Simon,Open,32,M,82.5,81.8,Slovenia,,,,,,140,145,147.5,147.5,,260,-270,270,270,,417.5,Raw,BD
1,Stanislav Pryakhin,Masters 40-44,41,M,82.5,82.5,Russia,,,,,,152.5,157.5,-162.5,157.5,,270,285,-287.5,285,,442.5,Raw,BD
DQ,Argyris Katsoulas,Masters 40-44,43,M,82.5,80,Greece,,,,,,145,150.5,-155,150.5,,-210,-210,,,,,Raw,BD
1,Pekka Anttila,Masters 50-54,51,M,82.5,81.5,Finland,,,,,,90,100.5,-102.5,100.5,,-200,200,220,220,,320.5,Raw,BD
1,Aleksey Sheykin,Open,28,M,90,89.5,Belarus,,,,,,160,-167.5,167.5,167.5,,250,265,275,275,,442.5,Raw,BD
2,Paraskevas Mitropoulos,Open,29,M,90,89.2,Greece,,,,,,-120,122.5,-125,122.5,,240,250,-260,250,,372.5,Raw,BD
DQ,Yevgeniy Khomov,Open,34,M,90,90,Russia,,,,,,-180,-180,-180,,,,,,,,,Raw,BD
1,Georgiy Taranukhin,Masters 45-49,48,M,90,88.6,Russia,,,,,,147.5,-152.5,-152.5,147.5,,250,262.5,-265,262.5,,410,Raw,BD
1,Sergey Mishchenko,Open,28,M,100,98.5,Ukraine,,,,,,150,-157.5,-157.5,150,,260,-272.5,-272.5,260,,410,Raw,BD
1,Georgiy Kotelnikov,Open,24,M,100,99.1,Russia,,,,,,140,150,-152.5,150,,-220,225,-230,225,,375,Raw,BD
1,Valeriy Churzin,Masters 40-44,42,M,100,99.7,Russia,,,,,,170,-177.5,-177.5,170,,215,-230,-230,215,,385,Raw,BD
1,Dean Kendall,Masters 50-54,51,M,100,94.8,USA,,,,,,95,100,-115,100,,120,130,-150,130,,230,Raw,BD
1,Miklos Oliver,Teen 18-19,19,M,110,102.2,Russia,,,,,,190,200,-207.5,200,,270,290,-300,290,,490,Raw,BD
1,Róbert Majoros,Juniors 20-23,22,M,110,104.9,USA,,,,,,190,205,210,210,215,260,-300,-300,260,,470,Raw,BD
1,Ilya Linnikov,Open,35,M,110,108.2,Russia,,,,,,215,222.5,227.5,227.5,,290,305,317.5,317.5,,545,Raw,BD
2,Artem Kobanov,Open,24,M,110,108.6,Russia,,,,,,220,227.5,-232.5,227.5,,305,312.5,-320,312.5,,540,Raw,BD
1,Valeriy Sytnikov,Masters 45-49,46,M,110,109.4,Russia,,,,,,140,150,155,155,,255,280,-290,280,,435,Raw,BD
1,Anthony Williamson,Masters 50-54,51,M,110,109.6,USA,,,,,,137.5,147.5,155,155,-169,-220,235,240,240,-245,395,Raw,BD
1,Pantelis Sapounakis,Open,36,M,125,117.9,Greece,,,,,,215,-225,-225,215,,300,310,-315,310,,525,Raw,BD
2,Athanasios Liouras,Open,34,M,125,118.7,Greece,,,,,,165,172.5,-180,172.5,,302.5,312.5,320,320,,492.5,Raw,BD
1,Pantelis Sapounakis,Submasters 35-39,36,M,125,117.9,Greece,,,,,,215,-225,-225,215,,300,310,-315,310,,525,Raw,BD
1,Andis Kaspars,Masters 40-44,40,M,125,120.3,Latvia,,,,,,182.5,192.5,200,200,-211,270,290,-305,290,,490,Raw,BD
1,Thormann Uwe,Masters 55-59,59,M,125,112,USA,,,,,,120,130,,130,,210,-230,,210,,340,Raw,BD
1,Sergey Luchenkov,Open,39,M,140,125.6,Russia,,,,,,200,210,220,220,,300,315,320,320,,540,Raw,BD
1,Rami Anttila,Open,24,M,140+,158.6,Finland,,,,,,140,150,157.5,157.5,,250,270,-290,270,,427.5,Raw,BD
1,Yuriy Knyazev,Open,33,M,75,73.9,Russia,,,,,,185,-192.5,-192.5,185,,230,240,250,250,,435,Single-ply,BD
1,Vladimir Urazov,Masters 45-49,49,M,90,88.1,Russia,,,,,,170,177.5,-182.5,177.5,,240,250,,250,,427.5,Single-ply,BD
1,Stanislav Kulikov,Open,38,M,100,96.9,Russia,,,,,,-205,205,215,215,,270,290,300,300,305,515,Single-ply,BD
2,Pavel Sudakov,Open,25,M,100,100,Russia,,,,,,220,-237.5,-237.5,220,,-270,270,-297.5,270,,490,Single-ply,BD
3,Aleksandr Yukhanov,Open,30,M,100,98.3,Russia,,,,,,130,,,130,,-292.5,292.5,-302.5,292.5,,422.5,Single-ply,BD
1,Pavel Koltsov,Juniors 20-23,23,M,110,105.8,Russia,,,,,,170,180,-191,180,,250,260,271,271,280,451,Single-ply,BD
1,Aleksandr Lugovoy,Juniors 20-23,21,M,125,117.4,Russia,,,,,,210,235,245,245,,290,320,-340,320,,565,Single-ply,BD
1,Dmitriy Kulikov,Juniors 20-23,21,M,75,72.2,Russia,165,-175,-175,165,,,,,,,,,,,,165,Raw,S
1,Aleksandr Skorobogatov,Open,35,M,82.5,82.4,Russia,-250,250,,250,,,,,,,,,,,,250,Raw,S
1,Marat Sagitov,Masters 45-49,45,M,82.5,80.6,Russia,165,175,185,185,195,,,,,,,,,,,185,Raw,S
1,Andrey Udalov,Juniors 20-23,22,M,90,89.3,Russia,250,-260,-260,250,,,,,,,,,,,,250,Raw,S
1,Andrey Udalov,Open,22,M,90,89.3,Russia,250,-260,-260,250,,,,,,,,,,,,250,Raw,S
2,Aleksandr Cherednichenko,Open,25,M,90,89.8,Russia,240,250,-255,250,,,,,,,,,,,,250,Raw,S
3,Paraskevas Mitropoulos,Open,29,M,90,89.2,Greece,220,235,245,245,,,,,,,,,,,,245,Raw,S
4,Vladimir Degtyarev,Open,32,M,90,89.9,Russia,-240,240,245,245,,,,,,,,,,,,245,Raw,S
5,Aleksey Sheykin,Open,28,M,90,89.5,Belarus,210,220,230,230,,,,,,,,,,,,230,Raw,S
1,Ilya Ushkov,Open,40,M,100,98.8,Russia,242.5,257.5,272.5,272.5,,,,,,,,,,,,272.5,Raw,S
2,Sergey Mishchenko,Open,28,M,100,98.5,Ukraine,-220,220,235,235,,,,,,,,,,,,235,Raw,S
3,Sergey Moiseyev,Open,39,M,100,98.7,Russia,200,210,220,220,,,,,,,,,,,,220,Raw,S
1,Ilya Ushkov,Masters 40-44,40,M,100,98.8,Russia,242.5,257.5,272.5,272.5,,,,,,,,,,,,272.5,Raw,S
1,Aleksey Strulev,Masters 45-49,45,M,100,96.4,Russia,150,160,170,170,,,,,,,,,,,,170,Raw,S
1,Vitaliy Gnatko,Masters 55-59,55,M,100,94.4,Russia,180,190,200,200,,,,,,,,,,,,200,Raw,S
1,Aleksandr Yevsyutkin,Open,28,M,110,104.5,Russia,180,190,-200,190,,,,,,,,,,,,190,Raw,S
1,Mariša Golob,Open,26,F,56,55.2,Slovenia,145,-155,-155,145,,,,,,,,,,,,145,Wraps,S
1,Aleksandr Rek,Open,29,M,67.5,67.2,Russia,207.5,217.5,-225,217.5,,,,,,,,,,,,217.5,Wraps,S
1,Erni Gregorčič,Masters 40-44,40,M,75,74.4,Slovenia,180,200,-205,200,,,,,,,,,,,,200,Wraps,S
1,Aleksey Nikulin,Open,34,M,82.5,81.3,Russia,330,-345,-345,330,,,,,,,,,,,,330,Wraps,S
2,Stopar Simon,Open,32,M,82.5,81.8,Slovenia,285,295,-306,295,,,,,,,,,,,,295,Wraps,S
3,Aleksey Markin,Open,30,M,82.5,81.9,Russia,245,-270,-270,245,,,,,,,,,,,,245,Wraps,S
4,Sergey Mozhayev,Open,28,M,82.5,82.4,Russia,215,-222.5,-222.5,215,,,,,,,,,,,,215,Wraps,S
1,Daniil Fedyukov,Teen 18-19,19,M,100,99.7,Russia,160,180,-200,180,,,,,,,,,,,,180,Wraps,S
1,Daniil Fedyukov,Open,19,M,100,99.7,Russia,160,180,-200,180,,,,,,,,,,,,180,Wraps,S
1,Andrey Pavlov,Open,36,M,110,102.2,Russia,280,290,300,300,,,,,,,,,,,,300,Wraps,S
2,Andrey Zolotarenok,Open,38,M,110,110,Russia,230,-245,250,250,,,,,,,,,,,,250,Wraps,S
1,Pantelis Sapounakis,Open,36,M,125,117.9,Greece,320,-330,-330,320,,,,,,,,,,,,320,Wraps,S
2,Athanasios Liouras,Open,34,M,125,118.7,Greece,260,275,282.5,282.5,,,,,,,,,,,,282.5,Wraps,S
1,Pantelis Sapounakis,Submasters 35-39,36,M,125,117.9,Greece,320,-330,-330,320,,,,,,,,,,,,320,Wraps,S
1,Oksana Kuznetsova,Open,26,F,52,52,Russia,-165,165,170,170,,,,,,,,,,,,170,Single-ply,S
1,Stanislav Arutyunov,Open,36,M,100,99.2,Russia,255,267.5,-275,267.5,,,,,,,,,,,,267.5,Single-ply,S
2,Yevgeniy Chuykin,Open,24,M,100,98.3,Russia,-255,255,-265,255,,,,,,,,,,,,255,Single-ply,S
3,Rustam Baymuratov,Open,32,M,100,97.5,Russia,160,,,160,,,,,,,,,,,,160,Single-ply,S
1,Aleksey Kashirin,Open,43,M,110,110,Russia,-365,365,370,370,,,,,,,,,,,,370,Single-ply,S
1,Aleksandr Lugovoy,Juniors 20-23,21,M,125,117.4,Russia,-310,310,340,340,,,,,,,,,,,,340,Single-ply,S
1,Bahman Halimimamaghani,Open,32,M,140,126.8,Iran,370,390,405,405,,,,,,,,,,,,405,Single-ply,S
2,Aleksey Serik,Open,29,M,140,125.5,Russia,-275,295,305,305,,,,,,,,,,,,305,Single-ply,S
1,Olga Lvova,Juniors 20-23,20,F,44,38.6,Russia,,,,,,27.5,30,32.5,32.5,,,,,,,32.5,Raw,B
1,Svetlana Burnashova,Open,39,F,52,52,Russia,,,,,,85,-90,-90,85,,,,,,,85,Raw,B
2,Yuliya Lokhmotkina,Open,29,F,52,50.8,Russia,,,,,,-60,60,-67.5,60,,,,,,,60,Raw,B
1,Dana Tripp,Masters 40-44,44,F,52,51.5,USA,,,,,,45,-47.5,-47.5,45,,,,,,,45,Raw,B
1,Inga Kaule,Masters 60-64,64,F,52,49.6,USA,,,,,,52.5,54,-56,54,,,,,,,54,Raw,B
1,Yekaterina Potekhina,Open,28,F,56,55.1,Russia,,,,,,85,87.5,-90,87.5,,,,,,,87.5,Raw,B
1,Lina Zubritskaya,Open,28,F,67.5,61.3,Moldova,,,,,,115,120,125,125,,,,,,,125,Raw,B
2,Inga Galich,Open,46,F,67.5,65.5,Russia,,,,,,85,-87.5,-90,85,,,,,,,85,Raw,B
1,Inga Galich,Masters 45-49,46,F,67.5,65.5,Russia,,,,,,85,-87.5,-90,85,,,,,,,85,Raw,B
1,Anastasiya Blinova,Teen 16-17,17,F,75,73,Russia,,,,,,90,95,-100,95,,,,,,,95,Raw,B
1,Anna Khudayarov,Open,28,F,75,74.3,Finland,,,,,,120,,,120,,,,,,,120,Raw,B
2,Yelena Ryndya,Open,39,F,75,71.1,Ukraine,,,,,,80,-85,-85,80,,,,,,,80,Raw,B
1,Viktoriya Knysh,Open,33,F,90,87.9,Russia,,,,,,160,,,160,,,,,,,160,Raw,B
1,Aleksandr Yastrebov,Teen 13-15,13,M,56,54.8,Russia,,,,,,45,50,52.5,52.5,,,,,,,52.5,Raw,B
1,Roman Belousov,Open,25,M,56,54.5,Russia,,,,,,157.5,162.5,-165,162.5,,,,,,,162.5,Raw,B
1,Sergey Salosalov,Youth,12,M,60,59.4,Russia,,,,,,-65,-70,70,70,-75,,,,,,70,Raw,B
1,Rishat Yusupov,Open,27,M,60,58.1,Russia,,,,,,80,87.5,92.5,92.5,,,,,,,92.5,Raw,B
1,Sergey Karaziya,Open,29,M,67.5,66.8,Russia,,,,,,160,165,-170,165,,,,,,,165,Raw,B
2,Igor Kuchin,Open,49,M,67.5,66.8,Russia,,,,,,150,157.5,-162.5,157.5,,,,,,,157.5,Raw,B
1,Dmitriy Kulikov,Juniors 20-23,21,M,75,72.2,Russia,,,,,,115,,,115,,,,,,,115,Raw,B
1,Artur Belous,Open,31,M,75,74.1,Russia,,,,,,200,207.5,210,210,-212.5,,,,,,210,Raw,B
2,Mikhail Alimov,Open,29,M,75,72.9,Russia,,,,,,185,-195,-200,185,,,,,,,185,Raw,B
3,Aleksey Kozinets,Open,30,M,75,71.5,Russia,,,,,,127.5,,,127.5,,,,,,,127.5,Raw,B
1,Eric Russell,Masters 45-49,49,M,75,68.6,Greece,,,,,,125,135,-140,135,,,,,,,135,Raw,B
1,Clotário Portugal,Masters 60-64,63,M,75,71.5,Brazil,,,,,,95,97.5,,97.5,,,,,,,97.5,Raw,B
1,Daniil Arzhakov,Juniors 20-23,21,M,82.5,82.2,Russia,,,,,,-177.5,-180,180,180,,,,,,,180,Raw,B
2,Artem Shturmin,Juniors 20-23,22,M,82.5,80.5,Russia,,,,,,150,157.5,-162.5,157.5,,,,,,,157.5,Raw,B
1,Aleksandr Makhonin,Open,27,M,82.5,81.5,Russia,,,,,,180,187.5,192.5,192.5,,,,,,,192.5,Raw,B
2,Aleksey Volkov,Open,31,M,82.5,81.2,Russia,,,,,,145,152.5,160,160,,,,,,,160,Raw,B
3,Shamil Askerov,Open,27,M,82.5,80.6,Russia,,,,,,150,155,157.5,157.5,,,,,,,157.5,Raw,B
4,Roman Ksenofontov,Open,27,M,82.5,82,Russia,,,,,,155,-165,-165,155,,,,,,,155,Raw,B
5,Aleksandr Skvortsov,Open,28,M,82.5,78.6,Russia,,,,,,130,-137.5,-137.5,130,,,,,,,130,Raw,B
DQ,Andrey Isayev,Open,24,M,82.5,81.9,Russia,,,,,,-160,-165,-165,,,,,,,,,Raw,B
1,Vladimir Karandashev,Masters 40-44,44,M,82.5,81.7,Russia,,,,,,140,145,150,150,,,,,,,150,Raw,B
2,Argyris Katsoulas,Masters 40-44,43,M,82.5,79.8,Greece,,,,,,147.5,-150.5,,147.5,,,,,,,147.5,Raw,B
1,Valerian Tenishev,Masters 50-54,53,M,82.5,79.5,Russia,,,,,,145,150,-155,150,,,,,,,150,Raw,B
1,Ivan Tumanov,Teen 18-19,19,M,90,89.8,Russia,,,,,,-120,125,-135,125,,,,,,,125,Raw,B
1,Andrey Udalov,Juniors 20-23,22,M,90,89.3,Russia,,,,,,190,,,190,,,,,,,190,Raw,B
1,Pavel Akinshin,Open,30,M,90,89.2,Russia,,,,,,210,215,-220,215,,,,,,,215,Raw,B
2,Aleksey Nikolayenko,Open,27,M,90,88.2,Russia,,,,,,195,202.5,-207.5,202.5,,,,,,,202.5,Raw,B
3,Pavel Karpukhin,Open,29,M,90,88.8,Russia,,,,,,180,190,-202.5,190,,,,,,,190,Raw,B
4,Andrey Udalov,Open,22,M,90,89.3,Russia,,,,,,190,,,190,,,,,,,190,Raw,B
5,Igor Shalashov,Open,35,M,90,89.2,Russia,,,,,,165,175,-180,175,,,,,,,175,Raw,B
6,Sergey Kachan,Open,24,M,90,89.1,Russia,,,,,,165,170,-175,170,,,,,,,170,Raw,B
7,Valeriy Bertram,Open,24,M,90,89.5,Russia,,,,,,160,167.5,-170,167.5,,,,,,,167.5,Raw,B
8,Andrey Zhuravlev,Open,24,M,90,89,Russia,,,,,,155,-162.5,162.5,162.5,,,,,,,162.5,Raw,B
9,Roman Shchekleyev,Open,27,M,90,83.7,Russia,,,,,,157.5,-167.5,-167.5,157.5,,,,,,,157.5,Raw,B
10,Kirill Zotin,Open,35,M,90,88.3,Russia,,,,,,145,155,-162.5,155,,,,,,,155,Raw,B
11,Vladimir Sidorenko,Open,55,M,90,84.2,Russia,,,,,,-125,130,-137.5,130,,,,,,,130,Raw,B
1,Sergey Bugakov,Masters 40-44,40,M,90,89,Russia,,,,,,145,152.5,160,160,,,,,,,160,Raw,B
1,Igor Gavrikov,Masters 50-54,51,M,90,86.6,Russia,,,,,,155,165,-172.5,165,,,,,,,165,Raw,B
1,Sergey Vasilyev,Masters 55-59,55,M,90,88.4,Russia,,,,,,150,155,-160,155,,,,,,,155,Raw,B
2,Vladimir Sidorenko,Masters 55-59,55,M,90,84.2,Russia,,,,,,-125,130,-137.5,130,,,,,,,130,Raw,B
1,Vladimir Kozlov,Masters 60-64,62,M,90,88.3,Russia,,,,,,155,165,-170,165,,,,,,,165,Raw,B
2,Boris Ryazanov,Masters 60-64,62,M,90,84,Russia,,,,,,135,142.5,-145,142.5,,,,,,,142.5,Raw,B
1,Daniil Fedyukov,Teen 18-19,19,M,100,99.7,Russia,,,,,,170,-177.5,-185,170,,,,,,,170,Raw,B
1,Eduard Martirosov,Juniors 20-23,21,M,100,95.9,Russia,,,,,,190,202.5,-207.5,202.5,,,,,,,202.5,Raw,B
2,Ilya Korobov,Juniors 20-23,23,M,100,99.6,Russia,,,,,,175,185,-195,185,,,,,,,185,Raw,B
3,Artem Riznik,Juniors 20-23,22,M,100,98,Russia,,,,,,-175,175,-185,175,,,,,,,175,Raw,B
1,Vadim Kakhuta,Open,35,M,100,98.7,Russia,,,,,,247.5,260,272,272,,,,,,,272,Raw,B
2,Aleksand Zhachenkov,Open,35,M,100,100,Russia,,,,,,225,232.5,-240,232.5,,,,,,,232.5,Raw,B
3,Aleksey Shishimin,Open,27,M,100,98.7,Russia,,,,,,215,-220,225,225,,,,,,,225,Raw,B
4,Ville Sieppi,Open,29,M,100,91.3,Finland,,,,,,200,-205,205,205,,,,,,,205,Raw,B
5,Artem Markov,Open,30,M,100,99.4,Russia,,,,,,190,200,205,205,,,,,,,205,Raw,B
6,Mikhail Chmirevskiy,Open,38,M,100,94.8,Russia,,,,,,175,185,190,190,,,,,,,190,Raw,B
7,Andrey Zhegulin,Open,36,M,100,99.2,Russia,,,,,,185,190,-195,190,,,,,,,190,Raw,B
8,Denis Chakalov,Open,29,M,100,97.3,Russia,,,,,,172.5,177.5,-185,177.5,,,,,,,177.5,Raw,B
9,Yevgeniy Drobotov,Open,29,M,100,96.4,Russia,,,,,,160,,,160,,,,,,,160,Raw,B
DQ,Igor Lipachev,Open,48,M,100,99.9,Russia,,,,,,-215,,,,,,,,,,,Raw,B
1,Yuriy Grigoryev,Open,34,M,100,99,Russia,,,,,,185,190,-195,190,,,,,,,190,Raw,B
1,Vladimir Galkin,Masters 40-44,41,M,100,92.3,Russia,,,,,,190,-197.5,-197.5,190,,,,,,,190,Raw,B
2,Sergey Savelyev,Masters 40-44,41,M,100,98.8,Russia,,,,,,175,185,-192.5,185,,,,,,,185,Raw,B
DQ,Boris Karasev,Masters 40-44,44,M,100,97.9,Russia,,,,,,-175,-175,,,,,,,,,,Raw,B
1,Igor Lipachev,Masters 45-49,48,M,100,99.9,Russia,,,,,,215,220,-227.5,220,,,,,,,220,Raw,B
2,Andrey Nikulin,Masters 45-49,49,M,100,95.7,Russia,,,,,,190,-195,,190,,,,,,,190,Raw,B
1,Natig Aliyev,Masters 50-54,52,M,100,98.8,Azerbaijan,,,,,,195,202.5,-207.5,202.5,,,,,,,202.5,Raw,B
1,Yuriy Molchanov,Masters 65-69,65,M,100,99.2,Russia,,,,,,100,,,100,,,,,,,100,Raw,B
1,Eldar Agarzayev,Juniors 20-23,23,M,110,104.6,Russia,,,,,,192.5,205,-212.5,205,,,,,,,205,Raw,B
1,Evgeniy Filatov,Open,35,M,110,104.8,Russia,,,,,,230,240,245,245,,,,,,,245,Raw,B
2,Rustem Sagdiyev,Open,45,M,110,106,Russia,,,,,,237.5,-242.5,-242.5,237.5,,,,,,,237.5,Raw,B
3,Artem Golovin,Open,39,M,110,102.7,Russia,,,,,,-197.5,202.5,-212.5,202.5,,,,,,,202.5,Raw,B
4,Oleksandr Chernish,Open,27,M,110,108.5,Ukraine,,,,,,202.5,,,202.5,,,,,,,202.5,Raw,B
5,Denis Puzyrev,Open,42,M,110,108.6,Russia,,,,,,182.5,190,192.5,192.5,,,,,,,192.5,Raw,B
6,Sergey Kolganov,Open,38,M,110,105.2,Russia,,,,,,185,-192.5,-192.5,185,,,,,,,185,Raw,B
7,Andrey Zolotarenok,Open,38,M,110,110,Russia,,,,,,170,,,170,,,,,,,170,Raw,B
DQ,Khamzat Mutsayev,Open,37,M,110,107,Russia,,,,,,-190,,,,,,,,,,,Raw,B
1,Eduard Dmitriev,Masters 40-44,44,M,110,108.4,Russia,,,,,,215,222.5,,222.5,,,,,,,222.5,Raw,B
2,Aleksey Kovrigin,Masters 40-44,41,M,110,101.8,Russia,,,,,,190,197.5,202.5,202.5,,,,,,,202.5,Raw,B
3,Yevgeniy Aleksandrov,Masters 40-44,41,M,110,107.3,Russia,,,,,,195,202.5,-205,202.5,,,,,,,202.5,Raw,B
4,Denis Puzyrev,Masters 40-44,42,M,110,108.6,Russia,,,,,,182.5,190,192.5,192.5,,,,,,,192.5,Raw,B
5,Nikolay Sorokin,Masters 40-44,40,M,110,104,Russia,,,,,,160,-167.5,-167.5,160,,,,,,,160,Raw,B
1,Rustem Sagdiyev,Masters 45-49,45,M,110,106,Russia,,,,,,237.5,-242.5,-242.5,237.5,,,,,,,237.5,Raw,B
2,Kirill Potekhin,Masters 45-49,45,M,110,101.7,Russia,,,,,,185,190,-192.5,190,,,,,,,190,Raw,B
3,Daugavets Mariks,Masters 45-49,45,M,110,107.8,Latvia,,,,,,190,-200,-200,190,,,,,,,190,Raw,B
4,Igor Sharapov,Masters 45-49,45,M,110,109.7,Russia,,,,,,185,,,185,,,,,,,185,Raw,B
1,Ulises Aldo,Masters 50-54,50,M,110,104.8,Peru,,,,,,142.5,,,142.5,,,,,,,142.5,Raw,B
1,Aleksandr Pedchenko,Juniors 20-23,23,M,125,116.6,Russia,,,,,,235,242.5,-245,242.5,,,,,,,242.5,Raw,B
1,Vishal Knanna,Open,36,M,125,125,India,,,,,,232.5,240,245,245,,,,,,,245,Raw,B
2,Aleksandr Pedchenko,Open,23,M,125,116.6,Russia,,,,,,235,242.5,-245,242.5,,,,,,,242.5,Raw,B
3,Mikhail Rumyantsev,Open,31,M,125,114.3,Russia,,,,,,215,-225,230,230,,,,,,,230,Raw,B
4,Pantelis Sapounakis,Open,36,M,125,117.9,Greece,,,,,,215,,,215,,,,,,,215,Raw,B
5,Athanasios Liouras,Open,34,M,125,118.7,Greece,,,,,,165,,,165,,,,,,,165,Raw,B
1,Vishal Knanna,Submasters 35-39,36,M,125,125,India,,,,,,232.5,240,245,245,,,,,,,245,Raw,B
2,Pantelis Sapounakis,Submasters 35-39,36,M,125,117.9,Greece,,,,,,215,,,215,,,,,,,215,Raw,B
1,Sergey Molchanov,Masters 40-44,43,M,125,113.3,Russia,,,,,,210,220,-227.5,220,,,,,,,220,Raw,B
2,Vladimir Ryndya,Masters 40-44,41,M,125,114.5,Russia,,,,,,-215,215,-222.5,215,,,,,,,215,Raw,B
1,Maksim Silaev,Masters 45-49,48,M,125,119,Russia,,,,,,220,-230,-230,220,,,,,,,220,Raw,B
1,Yevgeniy Yepishin,Masters 50-54,54,M,125,118.6,Russia,,,,,,-175,175,182.5,182.5,,,,,,,182.5,Raw,B
2,Iztok Mavsar,Masters 50-54,53,M,125,110.8,Slovenia,,,,,,165,172.5,180,180,,,,,,,180,Raw,B
1,Voldemārs Šērs,Masters 55-59,56,M,125,113.6,Latvia,,,,,,175,-180,,175,,,,,,,175,Raw,B
1,Aleksandr Fotin,Open,25,M,140,125.7,Russia,,,,,,255,-265,265,265,,,,,,,265,Raw,B
DQ,Abramov Aleksandr,Open,39,M,140,131.9,Russia,,,,,,-230,-230,,,,,,,,,,Raw,B
1,Stanislav Karpov,Masters 45-49,45,M,140+,154.3,Russia,,,,,,220,225,230,230,-235,,,,,,230,Raw,B
DQ,Yeva Merzon,Disabled Open,25,F,52,48.5,Russia,,,,,,-42.5,-42.5,-42.5,,,,,,,,,Raw,B
1,Marina Gorikova,Disabled Open,33,F,67.5,62,Russia,,,,,,-75,-75,75,75,-80,,,,,,75,Raw,B
1,Natalya Bakhmatova,Disabled Masters 45-49,46,F,67.5,63.1,Russia,,,,,,65,70,72.5,72.5,,,,,,,72.5,Raw,B
2,Svetlana Belikova,Disabled Masters 45-49,48,F,67.5,64.5,Russia,,,,,,27.5,30,-32.5,30,,,,,,,30,Raw,B
1,Kirill Dmitriyev,Disabled Open,35,M,60,56.2,Russia,,,,,,90,95,-100,95,,,,,,,95,Raw,B
2,Yegor Avershin,Disabled Open,26,M,60,59.2,Russia,,,,,,40,45,50,50,,,,,,,50,Raw,B
1,Aleksandr Andreyev,Disabled Teen 13-15,14,M,67.5,63,Russia,,,,,,40,50,60,60,,,,,,,60,Raw,B
1,Vasiliy Bezborodov,Disabled Juniors 20-23,23,M,67.5,64.3,Russia,,,,,,80,-85,-85,80,,,,,,,80,Raw,B
1,Pavel Varavin,Disabled Open,34,M,67.5,67,Russia,,,,,,90,95,-97.5,95,,,,,,,95,Raw,B
2,Grigoriy Loshchinin,Disabled Open,25,M,67.5,65.1,Russia,,,,,,-77.5,-77.5,80,80,,,,,,,80,Raw,B
1,Yevgeniy Kosarev,Disabled Masters 55-59,55,M,67.5,64.2,Russia,,,,,,70,-75,75,75,,,,,,,75,Raw,B
1,Aleksandr Shalayev,Disabled Teen 13-15,15,M,75,68.1,Russia,,,,,,105,110,115,115,,,,,,,115,Raw,B
1,Nikita Konstantinov,Disabled Teen 18-19,19,M,75,70.7,Russia,,,,,,85,-90,-90,85,,,,,,,85,Raw,B
1,Dmitriy Abdalov,Disabled Open,27,M,75,73.2,Russia,,,,,,75,80,85,85,,,,,,,85,Raw,B
2,Aleksey Pachin,Disabled Open,37,M,75,68.6,Russia,,,,,,-50,50,52.5,52.5,,,,,,,52.5,Raw,B
1,Georgiy Gvozdev,Disabled Masters 55-59,57,M,75,75,Russia,,,,,,110,-115,-115,110,,,,,,,110,Raw,B
1,Anton Vostrikov,Disabled Juniors 20-23,21,M,90,83.7,Russia,,,,,,112.5,117.5,122.5,122.5,,,,,,,122.5,Raw,B
1,Aleksandr Veselov,Disabled Open,26,M,90,84,Russia,,,,,,50,60,-62.5,60,,,,,,,60,Raw,B
2,Georgiy Zakharov,Disabled Open,26,M,90,85,Russia,,,,,,50,-55,55,55,,,,,,,55,Raw,B
1,Aleksandr Lednev,Disabled Masters 40-44,43,M,90,86.4,Russia,,,,,,80,85,90,90,,,,,,,90,Raw,B
1,Sergey Kolosov,Disabled Open,28,M,100,95.8,Russia,,,,,,65,70,72.5,72.5,,,,,,,72.5,Raw,B
1,Sergey Kovalev,Disabled Masters 45-49,47,M,100,98.2,Russia,,,,,,115,120,-122.5,120,,,,,,,120,Raw,B
1,Vladimir Kuznetsov,Disabled Masters 70-74,71,M,100,99,Russia,,,,,,-65,65,-70,65,,,,,,,65,Raw,B
1,Sergey Sokulskiy,Disabled Open,31,M,110,103.5,Russia,,,,,,185,195,200,200,-205,,,,,,200,Raw,B
1,Stanislav Goryachev,Disabled Open,41,M,140,127.9,Russia,,,,,,180,190,-195,190,,,,,,,190,Raw,B
1,Yulia Medvedeva,Open,37,F,75,74.8,Russia,,,,,,185,-195,-202.5,185,,,,,,,185,Single-ply,B
1,Elaine Amy,Open,44,F,90,89.8,USA,,,,,,-110,110,-120,110,,,,,,,110,Single-ply,B
1,Elaine Amy,Masters 40-44,44,F,90,89.8,USA,,,,,,-110,110,-120,110,,,,,,,110,Single-ply,B
1,Daniil Bobryshev,Teen 18-19,19,M,67.5,63.2,Russia,,,,,,-115,115,125,125,,,,,,,125,Single-ply,B
1,Denis Popov,Open,24,M,67.5,66.5,Russia,,,,,,115,125,-132.5,125,,,,,,,125,Single-ply,B
DQ,Kirill Sitdikov,Juniors 20-23,23,M,75,72.2,Russia,,,,,,-150,-150,-150,,,,,,,,,Single-ply,B
1,Yuriy Knyazev,Open,33,M,75,73.9,Russia,,,,,,185,,,185,,,,,,,185,Single-ply,B
2,Denis Kopyttsev,Open,25,M,75,73.1,Russia,,,,,,-170,170,177.5,177.5,,,,,,,177.5,Single-ply,B
DQ,Vyacheslav Sirotin,Open,29,M,75,72.6,Russia,,,,,,-250,-250,-250,,,,,,,,,Single-ply,B
1,Yuriy Yeremin,Open,33,M,82.5,77.4,Russia,,,,,,215,-227.5,227.5,227.5,,,,,,,227.5,Single-ply,B
2,Pavel Dvoryadkin,Open,30,M,82.5,81.6,Russia,,,,,,-180,180,200,200,,,,,,,200,Single-ply,B
DQ,Vasiliy Semin,Open,29,M,82.5,78.9,Russia,,,,,,-220,-220,-220,,,,,,,,,Single-ply,B
1,Pavel Silushin,Open,27,M,90,84.7,Russia,,,,,,245,255,260,260,,,,,,,260,Single-ply,B
2,Vladimir Konchakov,Open,43,M,90,89.3,Russia,,,,,,235,245,257.5,257.5,,,,,,,257.5,Single-ply,B
3,Ivan Semenikhin,Open,25,M,90,85.4,Russia,,,,,,230,-245,-245,230,,,,,,,230,Single-ply,B
4,Ilya Uglichin,Open,29,M,90,88.9,Russia,,,,,,220,-230,-232.5,220,,,,,,,220,Single-ply,B
5,Dkhmitriy Kochevatkin,Open,40,M,90,88.9,Russia,,,,,,-215,-215,215,215,,,,,,,215,Single-ply,B
1,Vladimir Konchakov,Masters 40-44,43,M,90,89.3,Russia,,,,,,235,245,257.5,257.5,,,,,,,257.5,Single-ply,B
2,Sergey Popov,Masters 40-44,42,M,90,88.6,Russia,,,,,,-232.5,-232.5,232.5,232.5,,,,,,,232.5,Single-ply,B
3,Dkhmitriy Kochevatkin,Masters 40-44,40,M,90,88.9,Russia,,,,,,-215,-215,215,215,,,,,,,215,Single-ply,B
1,Vladimir Urazov,Masters 45-49,49,M,90,88.1,Russia,,,,,,177.5,,,177.5,,,,,,,177.5,Single-ply,B
1,Emin Galib Ogly Mamedov,Open,42,M,100,97.7,Russia,,,,,,330,360,-380,360,,,,,,,360,Single-ply,B
2,Sergey Tesaruk,Open,32,M,100,97.5,Russia,,,,,,215,-225,-225,215,,,,,,,215,Single-ply,B
1,Emin Galib Ogly Mamedov,Masters 40-44,42,M,100,97.7,Russia,,,,,,330,360,-380,360,,,,,,,360,Single-ply,B
2,Georgiy Paradiz,Masters 40-44,41,M,100,98.2,Russia,,,,,,240,250,-260,250,,,,,,,250,Single-ply,B
1,Vladimir Sibalakov,Open,35,M,110,110,Russia,,,,,,-265,265,282.5,282.5,,,,,,,282.5,Single-ply,B
2,Valeriy Kurochkin,Open,38,M,110,101,Russia,,,,,,250,260,270,270,,,,,,,270,Single-ply,B
3,Andrey Chebykin,Open,40,M,110,105.3,Russia,,,,,,260,-280,-280,260,,,,,,,260,Single-ply,B
DQ,Vladislav Shkudas,Open,27,M,110,101.8,Russia,,,,,,-310,-310,-320,,,,,,,,,Single-ply,B
DQ,Kenneth Millrany,Open,53,M,110,106,USA,,,,,,-305,-305,-305,,,,,,,,,Single-ply,B
DQ,Aleksandr Olkhovskiy,Open,37,M,110,109.1,Russia,,,,,,-265,-265,-265,,,,,,,,,Single-ply,B
1,Cecenovic Milos,Submasters 35-39,38,M,110,105,Montenegro,,,,,,240,255,-261,255,,,,,,,255,Single-ply,B
1,Andrey Chebykin,Masters 40-44,40,M,110,105.3,Russia,,,,,,260,-280,-280,260,,,,,,,260,Single-ply,B
1,Andrey Grigoryev,Masters 50-54,51,M,110,106.7,Russia,,,,,,165,,,165,,,,,,,165,Single-ply,B
DQ,Kenneth Millrany,Masters 50-54,53,M,110,106,USA,,,,,,-305,-305,-305,,,,,,,,,Single-ply,B
1,Eduard Abdyushev,Masters 60-64,61,M,110,108.7,Russia,,,,,,-220,220,-232.5,220,,,,,,,220,Single-ply,B
1,Andrey Zhukov,Open,40,M,125,113.7,Russia,,,,,,240,250,-262.5,250,,,,,,,250,Single-ply,B
2,Konstantin Kryzhanovskiy,Open,41,M,125,111.4,Russia,,,,,,-240,240,-252.5,240,,,,,,,240,Single-ply,B
1,Aleksandr Medvedev,Masters 40-44,44,M,125,113.7,Russia,,,,,,240,250,260,260,,,,,,,260,Single-ply,B
2,Denis Belyayev,Masters 40-44,41,M,125,115.8,Russia,,,,,,235,245,-252.5,245,,,,,,,245,Single-ply,B
3,Konstantin Kryzhanovskiy,Masters 40-44,41,M,125,111.4,Russia,,,,,,-240,240,-252.5,240,,,,,,,240,Single-ply,B
DQ,Sharof Azimov,Masters 40-44,44,M,125,115.2,Russia,,,,,,-190,-190,-190,,,,,,,,,Single-ply,B
1,Kirill Kayava,Open,40,M,140,139,Russia,,,,,,315,325,330,330,,,,,,,330,Single-ply,B
2,Danial Zamani,Open,25,M,140,136,Iran,,,,,,300,315,-325,315,,,,,,,315,Single-ply,B
DQ,Pavel Guzev,Open,50,M,140,129.3,Russia,,,,,,-280,-280,-280,,,,,,,,,Single-ply,B
DQ,Pavel Guzev,Masters 50-54,50,M,140,129.3,Russia,,,,,,-280,-280,-280,,,,,,,,,Single-ply,B
DQ,Bejerano Rankin,Open,41,M,140+,193,Cuba,,,,,,-300,-300,,,,,,,,,,Single-ply,B
DQ,Bejerano Rankin,Masters 40-44,41,M,140+,193,Cuba,,,,,,-300,-300,,,,,,,,,,Single-ply,B
1,Olesya Fisun,Teen 13-15,15,F,52,51.7,Russia,,,,,,,,,,,62.5,72.5,-82.5,72.5,,72.5,Raw,D
1,Anna Yefimova,Juniors 20-23,23,F,52,51.3,Russia,,,,,,,,,,,92.5,100,-102.5,100,,100,Raw,D
1,Svetlana Burnashova,Open,39,F,52,52,Russia,,,,,,,,,,,175,-180,-180,175,,175,Raw,D
1,Alina Sazonova,Open,28,F,60,58.3,Russia,,,,,,,,,,,140,150,-155,150,,150,Raw,D
1,Olga Sidorova,Masters 50-54,50,F,60,59,Russia,,,,,,,,,,,100,,,100,,100,Raw,D
1,Viktoriya Ablayeva,Open,33,F,67.5,64.8,Russia,,,,,,,,,,,200,207.5,-215,207.5,,207.5,Raw,D
1,Anna Khudayarov,Open,28,F,75,74.3,Finland,,,,,,,,,,,185,200,210,210,-215.5,210,Raw,D
1,Ernest Ruzin,Masters 75-79,79,M,67.5,62.1,Israel,,,,,,,,,,,160,165,,165,,165,Raw,D
1,Aleksandr Dambinov,Masters 80+,80,M,67.5,65,Russia,,,,,,,,,,,-150,150,,150,,150,Raw,D
1,Aleksandr Trondyuk,Juniors 20-23,20,M,75,73.9,Ukraine,,,,,,,,,,,251,272.5,-280.5,272.5,,272.5,Raw,D
2,Dmitriy Kulikov,Juniors 20-23,21,M,75,72.2,Russia,,,,,,,,,,,175,185,-190,185,,185,Raw,D
1,Aleksandr Trondyuk,Open,20,M,75,73.9,Ukraine,,,,,,,,,,,251,272.5,-280.5,272.5,,272.5,Raw,D
2,Aleksey Kozinets,Open,30,M,75,71.5,Russia,,,,,,,,,,,185,-195,200,200,,200,Raw,D
1,Aleksey Nikulin,Open,34,M,82.5,81.3,Russia,,,,,,,,,,,300,315,325,325,-330,325,Raw,D
2,Bogdan Vorobey,Open,33,M,82.5,81.5,Ukraine,,,,,,,,,,,265,275,282.5,282.5,,282.5,Raw,D
1,Marat Sagitov,Masters 45-49,45,M,82.5,80.1,Russia,,,,,,,,,,,165,180,195,195,,195,Raw,D
1,Andrey Udalov,Juniors 20-23,22,M,90,89.3,Russia,,,,,,,,,,,260,270,275,275,,275,Raw,D
1,Ilya Fedorov,Open,24,M,90,88.4,Russia,,,,,,,,,,,320,330,-340,330,,330,Raw,D
2,Anton Ilyasov,Open,28,M,90,89.6,Russia,,,,,,,,,,,315,330,-340,330,,330,Raw,D
3,Artem Kochenyuk,Open,27,M,90,86.2,Russia,,,,,,,,,,,-290,300,-305,300,,300,Raw,D
4,Kirill Tsaparov,Open,32,M,90,83.5,Russia,,,,,,,,,,,275,290,-310,290,,290,Raw,D
5,Yevgeniy Khomov,Open,34,M,90,90,Russia,,,,,,,,,,,287.5,,,287.5,,287.5,Raw,D
6,Andrey Udalov,Open,22,M,90,89.3,Russia,,,,,,,,,,,260,270,275,275,,275,Raw,D
7,Aleksey Sheykin,Open,28,M,90,89.5,Belarus,,,,,,,,,,,250,265,275,275,,275,Raw,D
8,Paraskevas Mitropoulos,Open,29,M,90,89.2,Greece,,,,,,,,,,,240,250,-260,250,,250,Raw,D
1,Vladimir Fokin,Masters 50-54,51,M,90,88.5,Russia,,,,,,,,,,,-240,240,-255,240,,240,Raw,D
2,Luis Zerpa García,Masters 50-54,50,M,90,86.7,Peru,,,,,,,,,,,160,180,195,195,,195,Raw,D
1,Vadim Zaytsev,Masters 55-59,56,M,90,88.3,Russia,,,,,,,,,,,240,250,260,260,,260,Raw,D
1,LB Baker,Masters 75-79,79,M,90,86.6,USA,,,,,,,,,,,110,125,140,140,,140,Raw,D
1,Roman Konstantinov,Open,32,M,100,96.8,Russia,,,,,,,,,,,240,,,240,,240,Raw,D
1,Yuliy Grakhov,Masters 50-54,53,M,100,94,Russia,,,,,,,,,,,160,170,180,180,-185,180,Raw,D
2,Dean Kendall,Masters 50-54,51,M,100,94.8,USA,,,,,,,,,,,120,130,-150,130,,130,Raw,D
1,Aleksandr Tsvetkov,Masters 55-59,59,M,100,97.1,Russia,,,,,,,,,,,230,252.5,-262.5,252.5,,252.5,Raw,D
2,Vitaliy Gnatko,Masters 55-59,55,M,100,94.4,Russia,,,,,,,,,,,220,230,235,235,,235,Raw,D
1,Dmitriy Shekhovtsev,Teen 18-19,19,M,110,107.1,Russia,,,,,,,,,,,250,265,280,280,,280,Raw,D
1,Ruslan Noskov,Juniors 20-23,21,M,110,105.9,Russia,,,,,,,,,,,260,-280,280,280,-290,280,Raw,D
2,Ulaş Maden,Juniors 20-23,20,M,110,106.3,Turkey,,,,,,,,,,,255,-263,263,263,,263,Raw,D
1,Konstantin Morozov,Open,32,M,110,108.8,Russia,,,,,,,,,,,382.5,390,-402.5,390,,390,Raw,D
2,Aleksandr Tarakin,Open,30,M,110,103.3,Russia,,,,,,,,,,,317.5,-332.5,-332.5,317.5,,317.5,Raw,D
3,Aleksey Sotov,Open,27,M,110,108.2,Russia,,,,,,,,,,,305,312.5,-320,312.5,,312.5,Raw,D
4,Vasiliy Dovgoborets,Open,26,M,110,110,Russia,,,,,,,,,,,300,310,-322.5,310,,310,Raw,D
5,Mohammed-Azamathulla Mukarrum,Open,39,M,110,101.7,India,,,,,,,,,,,270,285,292.5,292.5,,292.5,Raw,D
6,Dmitriy Shekhovtsev,Open,19,M,110,107.1,Russia,,,,,,,,,,,250,265,280,280,,280,Raw,D
1,Mohammed-Azamathulla Mukarrum,Submasters 35-39,39,M,110,101.7,India,,,,,,,,,,,270,285,292.5,292.5,,292.5,Raw,D
1,Valeriy Stepovoy,Masters 40-44,43,M,110,107.3,Russia,,,,,,,,,,,220,235,-252.5,235,,235,Raw,D
1,Valeriy Sytnikov,Masters 45-49,46,M,110,109.4,Russia,,,,,,,,,,,255,280,-290,280,,280,Raw,D
1,Ulises Aldo,Masters 50-54,50,M,110,104.8,Peru,,,,,,,,,,,175,200,-210,200,,200,Raw,D
1,Artur Borisov,Teen 18-19,18,M,125,113.5,Russia,,,,,,,,,,,280,-290,-290,280,,280,Raw,D
1,Vladislav Bernetskiy,Juniors 20-23,23,M,125,115,Russia,,,,,,,,,,,300,320,-335,320,,320,Raw,D
1,Sergey Daragan,Open,38,M,125,116.9,Russia,,,,,,,,,,,320,350,-361,350,,350,Raw,D
2,Ivan Chesnokov,Open,26,M,125,118,Russia,,,,,,,,,,,325,-335,-335,325,,325,Raw,D
3,Athanasios Liouras,Open,34,M,125,118.7,Greece,,,,,,,,,,,302.5,312.5,320,320,,320,Raw,D
4,Vladimir Marchenko,Open,38,M,125,120.7,Russia,,,,,,,,,,,320,-335,-335,320,,320,Raw,D
5,Pantelis Sapounakis,Open,36,M,125,117.9,Greece,,,,,,,,,,,300,310,-315,310,,310,Raw,D
6,Yevgeniy Yushchenko,Open,31,M,125,114.2,Russia,,,,,,,,,,,260,-275,-275,260,,260,Raw,D
1,Pantelis Sapounakis,Submasters 35-39,36,M,125,117.9,Greece,,,,,,,,,,,300,310,-315,310,,310,Raw,D
1,Leonid Palshin,Masters 45-49,46,M,125,115.9,Russia,,,,,,,,,,,220,250,-260,250,,250,Raw,D
1,Thormann Uwe,Masters 55-59,59,M,125,112,USA,,,,,,,,,,,210,-230,,210,,210,Raw,D
1,Viktor Krylov,Open,31,M,140,132,Russia,,,,,,,,,,,300,320,-330,320,,320,Raw,D
2,Anton Filippov,Open,30,M,140,138.6,Russia,,,,,,,,,,,290,300,-320,300,,300,Raw,D
3,Raghavendr-Shivanand Hondadakeri,Open,36,M,140,129,India,,,,,,,,,,,270,290,-300,290,,290,Raw,D
1,Raghavendr-Shivanand Hondadakeri,Submasters 35-39,36,M,140,129,India,,,,,,,,,,,270,290,-300,290,,290,Raw,D
1,Morteza Farahi,Masters 40-44,42,M,140+,140.1,Iran,,,,,,,,,,,280,295,305,305,,305,Raw,D
1,Alena Fedulova,Open,26,F,60,58.6,Russia,,,,,,,,,,,110,117.5,122.5,122.5,,122.5,Single-ply,D
1,Aleksey Zernov,Open,35,M,60,59.4,Russia,,,,,,,,,,,135,140,150,150,,150,Single-ply,D
1,Anton Doronin,Open,25,M,75,72.8,Russia,,,,,,,,,,,172.5,182.5,-185,182.5,,182.5,Single-ply,D
1,Vladimir Zhabin,Open,36,M,82.5,82,Russia,,,,,,,,,,,330,347.5,-361,347.5,,347.5,Single-ply,D
2,Sergey Pisarev,Open,25,M,82.5,81,Russia,,,,,,,,,,,250,270,-280,270,,270,Single-ply,D
3,Sergey Koryakin,Open,40,M,82.5,80.2,Russia,,,,,,,,,,,-250,250,260,260,,260,Single-ply,D
4,Aleksey Samardin,Open,33,M,82.5,78.9,Russia,,,,,,,,,,,212.5,227.5,230,230,,230,Single-ply,D
5,Roman Tsikolenko,Open,32,M,82.5,80.3,Russia,,,,,,,,,,,185,200,-205,200,,200,Single-ply,D
6,Aleksandr Parfenov,Open,28,M,82.5,80.9,Russia,,,,,,,,,,,165,-175,-180,165,,165,Single-ply,D
7,Sergey Koryakin,Masters 40-44,40,M,82.5,80.2,Russia,,,,,,,,,,,-250,250,260,260,,260,Single-ply,D
1,Sergey Mishchenko,Open,28,M,90,88.5,Ukraine,,,,,,,,,,,250,-270,-282.5,250,,250,Single-ply,D
2,Petr Samko,Open,29,M,90,86.9,Russia,,,,,,,,,,,220,-240,-240,220,,220,Single-ply,D
3,Nikolay Tyatkov,Open,32,M,90,85.8,Russia,,,,,,,,,,,170,-182.5,-182.5,170,,170,Single-ply,D
1,Dmitriy Gorelikov,Masters 45-49,48,M,90,88.6,Russia,,,,,,,,,,,245,255,267.5,267.5,,267.5,Single-ply,D
2,Vladimir Urazov,Masters 45-49,49,M,90,88.1,Russia,,,,,,,,,,,240,250,,250,,250,Single-ply,D
1,Stanislav Kulikov,Open,38,M,100,96.9,Russia,,,,,,,,,,,270,290,300,300,305,300,Single-ply,D
2,Mikhail Grinko,Open,38,M,100,99.3,Russia,,,,,,,,,,,270,300,-310,300,,300,Single-ply,D
3,Aleksandr Yukhanov,Open,30,M,100,98.3,Russia,,,,,,,,,,,-292.5,292.5,-302.5,292.5,,292.5,Single-ply,D
4,Dmitriy Pershin,Open,26,M,100,97.3,Russia,,,,,,,,,,,220,240,-255,240,,240,Single-ply,D
1,Pavel Koltsov,Juniors 20-23,23,M,110,105.8,Russia,,,,,,,,,,,250,260,271,271,280,271,Single-ply,D
1,Aleksandr Muratkin,Open,31,M,110,109,Russia,,,,,,,,,,,330,347.5,352.5,352.5,,352.5,Single-ply,D
2,Sergey Kovalchuk,Open,30,M,110,104.6,Russia,,,,,,,,,,,280,305,-320,305,,305,Single-ply,D
1,Andrey Grigoryev,Masters 50-54,51,M,110,106.7,Russia,,,,,,,,,,,210,220,,220,,220,Single-ply,D
1,Aleksey Kashirin,Open,43,M,125,111.5,Russia,,,,,,,,,,,340,355,365,365,,365,Single-ply,D
1,Andis Kaspars,Masters 40-44,40,M,125,120.3,Latvia,,,,,,,,,,,270,290,-305,290,,290,Single-ply,D
DQ,Bejerano Rankin,Open,41,M,140+,193,Cuba,,,,,,,,,,,-350,-350,,,,,Single-ply,D
DQ,Bejerano Rankin,Masters 40-44,41,M,140+,193,Cuba,,,,,,,,,,,-350,-350,,,,,Single-ply,D
