Event,Sex,Name,State,BodyweightKg,WeightClassKg,Division,Best3SquatKg,Best3BenchKg,Best3DeadliftKg,TotalKg,Equipment,Place,BirthDate
SBD,F,Brianna Swyryda,SK,83.4,84,Sub-Juniors,132.5,85,130,347.5,Single-ply,1,
SBD,F,Kaylee Maruska,SK,70.1,72,Sub-Juniors,160,93,162.5,415.5,Single-ply,1,
SBD,F,Natalie Hastings,SK,60.4,63,Sub-Juniors,107.5,60,107.5,275,Single-ply,1,
SBD,M,John Odgers,SK,92.3,93,Open,250,200,285,735,Single-ply,3,
SBD,M,John MacDonald,PE,92.8,93,Open,315,215,292.5,822.5,Single-ply,1,
SBD,M,Aaron Ziffle,SK,92.9,93,Open,315,227.5,260,802.5,Single-ply,2,
SBD,F,Rhaea Stinn,SK,72,72,Open,235,185,210,630,Single-ply,1,
SBD,F,Rebecca Adams,NL,82,84,Open,75,45,75,195,Single-ply,2,
SBD,M,Chris Fudge,ON,81.6,83,Open,240,177.5,250,667.5,Single-ply,2,
SBD,M,Bronson Jacque,NL,80.8,83,Open,247.5,175,250,672.5,Single-ply,1,
SBD,M,Steve Doyle,NL,73.4,74,Open,240,147.5,235,622.5,Single-ply,1,
SBD,F,Charlene Cossar,SK,69.5,72,Open,180,102.5,190,472.5,Single-ply,1,
SBD,F,Danielle Hussey,NL,57.8,63,Open,140,77.5,140,357.5,Single-ply,1,
SBD,F,Stephanie Puddicome,NL,56.7,57,Open,75,45,75,195,Single-ply,1,
SBD,M,Ryan Stinn,SK,136.5,120+,Open,385,275,325,985,Single-ply,1,
SBD,M,Kam Hughes,ON,117,120,Open,332.5,225,307.5,865,Single-ply,1,
SBD,M,Jason Dyck,AB,106.3,120,Open,317.5,215,272.5,805,Single-ply,3,
SBD,M,Garrett Cartwright-Bentley,ON,116.7,120,Open,355,227.5,280,862.5,Single-ply,2,
SBD,M,John-Wesley Cummings,BC,103.5,105,Open,315,245,277.5,837.5,Single-ply,3,
SBD,M,Bryce Krawczyk,AB,104,105,Open,367.5,245,380,992.5,Single-ply,1,
SBD,M,Adrian Locke,AB,102.4,105,Open,345,220,315,880,Single-ply,2,
SBD,M,Jerry Marentette,ON,92.6,93,Masters 3,125,170,253,548,Single-ply,1,
SBD,M,Ron Delaney,NS,82.8,83,Masters 3,177.5,110,230,517.5,Single-ply,1,
SBD,F,Pat Kowal,BC,63.2,72,Masters 3,113.5,72.5,142.5,328.5,Single-ply,1,
SBD,F,Carol Brady,ON,65.7,72,Masters 3,102.5,65,105,272.5,Single-ply,2,
SBD,M,Réjean Talon,QC,65.5,66,Masters 3,195,125,192.5,512.5,Single-ply,1,
SBD,M,Donald Lovell,BC,64.6,66,Masters 3,137.5,45,180,362.5,Single-ply,2,
SBD,M,Ron Strong,ON,122.4,120+,Masters 3,225,205,290,720,Single-ply,1,
SBD,M,Larry Walsh,NL,92.1,93,Masters 2,210,137.5,240,587.5,Single-ply,1,
SBD,F,Alisa Cutler,NL,124.7,84+,Masters 2,132.5,65,185,382.5,Single-ply,1,
SBD,F,Linda Guillemette,NL,80.8,84,Masters 2,92.5,62.5,142.5,297.5,Single-ply,1,
SBD,M,François Cazes,QC,72.6,74,Masters 2,182.5,102.5,205,490,Single-ply,1,
SBD,M,Jay McGrath,NL,64.2,66,Masters 2,187.5,115,187.5,490,Single-ply,1,
SBD,F,Kim Connors,NL,56.1,57,Masters 2,107.5,57.5,137.5,302.5,Single-ply,2,
SBD,F,Jayne Egan,ON,52.9,57,Masters 2,132.5,72.5,140,345,Single-ply,1,
SBD,F,Marnel Spencer,SK,45.5,47,Masters 2,106,65,117.5,288.5,Single-ply,1,
SBD,M,Paul Gidney,NS,103.3,105,Masters 2,257.5,185,280,722.5,Single-ply,1,
SBD,M,David Pigozzo,ON,100,105,Masters 2,225,147.5,250,622.5,Single-ply,2,
SBD,M,Travis Graham,ON,92,93,Masters 1,225,130,272.5,627.5,Single-ply,2,
SBD,M,Barry Antoniow,ON,90.5,93,Masters 1,227.5,240,200,667.5,Single-ply,1,
SBD,F,Heather Unsworth,NL,84.8,84+,Masters 1,170,90,125,385,Single-ply,1,
SBD,M,Tom Kean,NL,82.5,83,Masters 1,250,180,260,690,Single-ply,1,
SBD,M,Robert King,NL,82.4,83,Masters 1,182.5,75,205,462.5,Single-ply,2,
SBD,M,Lewis Noppers,AB,72.5,74,Masters 1,190,25,227.5,442.5,Single-ply,1,
SBD,F,Shantelle Szuch,SK,62.5,63,Masters 1,180.5,97.5,172.5,450.5,Single-ply,1,
SBD,F,Heather Ayles,PE,59.6,63,Masters 1,150,75,155,380,Single-ply,2,
SBD,F,Joanne Rose,NL,55.5,57,Masters 1,130,67.5,157.5,355,Single-ply,1,
SBD,F,Danielle Hussey,NL,55.5,57,Masters 1,137.5,75,140,352.5,Single-ply,2,
SBD,M,Steve Magistrale,ON,135.6,120+,Masters 1,335,125,125,585,Single-ply,1,
SBD,M,Jim Derksen,AB,104.6,105,Masters 1,245,165,267.5,677.5,Single-ply,3,
SBD,M,Jeff Butt,NL,100.6,105,Masters 1,290,210,287.5,787.5,Single-ply,1,
SBD,M,Brian George,NL,104.1,105,Masters 1,290,195,275,760,Single-ply,2,
SBD,M,Dylan Moldovan,SK,91,93,Juniors,295,190,285,770,Single-ply,1,
SBD,M,Jensen MacDonald,ON,81.8,83,Juniors,180,170,200,550,Single-ply,1,
SBD,M,Luke Homer,ON,71.2,74,Juniors,255,147.5,265,667.5,Single-ply,1,
SBD,F,Mikayla Lohse,SK,56.6,57,Juniors,157.5,82.5,171,411,Single-ply,1,
SBD,M,William Buhler,BC,116.6,120,Juniors,317.5,202.5,280,800,Single-ply,1,
SBD,M,Brian Kravtsov,AB,103.3,105,Juniors,290,165,250,705,Single-ply,1,
SBD,M,Austen Zentner,SK,104.4,105,Juniors,275,175,240,690,Single-ply,2,
SBD,M,Spencer Serota,QC,90.3,93,Sub-Juniors,257.5,145,257.5,660,Raw,1,
SBD,M,Connor Stiles,NB,88.6,93,Sub-Juniors,227.5,127.5,227.5,582.5,Raw,2,
SBD,F,Madeline Morgan,ON,82.2,84,Sub-Juniors,130.5,65,137.5,333,Raw,1,
SBD,F,Brianna Swyryda,SK,82.9,84,Sub-Juniors,100,55,125,280,Raw,2,
SBD,M,Simon Sarmiento,ON,81,83,Sub-Juniors,197.5,100,195,492.5,Raw,2,
SBD,M,Cole Clute,ON,81.8,83,Sub-Juniors,182.5,112.5,190,485,Raw,3,
SBD,M,Colby Leamon,NL,74.7,83,Sub-Juniors,155,95,160,410,Raw,5,
SBD,M,Carson Schamahorn,AB,82.3,83,Sub-Juniors,215,137.5,262.5,615,Raw,1,
SBD,M,Bronson Cameron,NB,80.2,83,Sub-Juniors,162.5,72.5,190,425,Raw,4,
SBD,M,Mitchell Godmaire,ON,72.9,74,Sub-Juniors,172.5,100,205,477.5,Raw,2,
SBD,M,Ethan Reid,NL,73.6,74,Sub-Juniors,205,125,227.5,557.5,Raw,1,
SBD,M,Eliott Hayton,ON,73,74,Sub-Juniors,175,92.5,195,462.5,Raw,3,
SBD,F,Lily MacPherson,NS,64.8,72,Sub-Juniors,115,50,120,285,Raw,2,
SBD,F,Kaylee Maruska,SK,69.8,72,Sub-Juniors,115,73,140,328,Raw,1,
SBD,F,Amber Milley,NL,66.5,72,Sub-Juniors,112.5,50,110,272.5,Raw,3,
SBD,M,Zachary Doucette,NS,64.8,66,Sub-Juniors,137.5,85,200,422.5,Raw,2,
SBD,M,Raphael Boutin,QC,64.7,66,Sub-Juniors,165,136,195,496,Raw,1,
SBD,M,Aryan Patnaik,AB,65.9,66,Sub-Juniors,152.5,80,180,412.5,Raw,3,
SBD,F,Annie-Pier Lavoie,QC,56.6,57,Sub-Juniors,125,65,145,335,Raw,1,
SBD,F,Alle Arsenault,ON,46.5,47,Sub-Juniors,90,60,102.5,252.5,Raw,1,
SBD,M,Jacob Bisch,ON,130.5,120+,Sub-Juniors,220,140,215,575,Raw,1,
SBD,M,Zach Morrow #1,ON,92.2,93,Open,242.5,147.5,260,650,Raw,22,
SBD,M,Thomas J. Gear,NL,91.1,93,Open,230,192.5,302.5,725,Raw,6,
SBD,M,Steven Jarosz,ON,91.6,93,Open,230,152.5,267.5,650,Raw,21,
SBD,M,Stephen Kim,ON,90.9,93,Open,222.5,160,277.5,660,Raw,17,
SBD,M,Sébastien Blais,QC,90.5,93,Open,235,157.5,255,647.5,Raw,24,
SBD,M,Rohit Bhardwaj,ON,90.3,93,Open,222.5,135,257.5,615,Raw,30,
SBD,M,Olivier Laperrière,QC,86.1,93,Open,265,145,260,670,Raw,16,
SBD,M,Michael Previdsa,ON,91.6,93,Open,260,167.5,322.5,750,Raw,3,
SBD,M,Mathieu Doré,QC,91.9,93,Open,292.5,175,282.5,750,Raw,4,
SBD,M,Mathieu Dehoey,QC,92.4,93,Open,220,150,272.5,642.5,Raw,26,
SBD,M,Luke McRae,AB,92.4,93,Open,250,177.5,280,707.5,Raw,8,
SBD,M,Keto Allen,AB,90.6,93,Open,245,175,285,705,Raw,9,
SBD,M,Josh Smith #13,ON,90.7,93,Open,255,160,270,685,Raw,13,
SBD,M,Joseph Benoit,NS,92.4,93,Open,235,147.5,270,652.5,Raw,19,
SBD,M,Jeremy Tsui,ON,88.6,93,Open,230,155,250,635,Raw,27,
SBD,M,Jean-Mathieu Desjardins,QC,92.9,93,Open,225,147.5,275,647.5,Raw,25,
SBD,M,Jarek Rhode,SK,91.2,93,Open,255,150,287.5,692.5,Raw,12,
SBD,M,James Sharpe,NB,92.2,93,Open,275,182.5,310,767.5,Raw,2,
SBD,M,George Shami,BC,92.1,93,Open,255,165,285,705,Raw,10,
SBD,M,Francis Martineau,QC,91.6,93,Open,255,152.5,272.5,680,Raw,15,
SBD,M,Divine Wekwa,BC,91.9,93,Open,285,167.5,282.5,735,Raw,5,
SBD,M,Devan Normandin,MB,91.3,93,Open,227.4,167.5,235,630,Raw,29,
SBD,M,Derrick Van Every,ON,91.7,93,Open,255,145,285,685,Raw,14,
SBD,M,Danny Dinh,ON,89.3,93,Open,225,162.5,262.5,650,Raw,20,
SBD,M,Daniel Tran,ON,93,93,Open,252.5,162.5,245,660,Raw,18,
SBD,M,Christopher Juman,ON,90.4,93,Open,227.5,147.5,272.5,647.5,Raw,23,
SBD,M,Carl Jobin-Shaw,QC,91.8,93,Open,255,170,285,710,Raw,7,
SBD,M,Anthony Fritz,ON,90.9,93,Open,250,175,270,695,Raw,11,
SBD,M,Andreas Boersch,SK,91.4,93,Open,227.5,132.5,275,635,Raw,28,
SBD,M,Alexandre Ouellet-Hébert,QC,92.5,93,Open,277.5,190,330,797.5,Raw,1,
SBD,F,Yvonne Ringler,ON,90.2,84+,Open,152.5,65,175,392.5,Raw,16,
SBD,F,Rebecca Garand,QC,90.4,84+,Open,182.5,65,205,452.5,Raw,8,
SBD,F,Nicole Kenny,PE,100.7,84+,Open,165,80,182.5,427.5,Raw,13,
SBD,F,Natasha Ching,NS,89.6,84+,Open,172.5,90,185,447.5,Raw,9,
SBD,F,Michaela Toner,NB,118.1,84+,Open,207.5,92.5,185,485,Raw,5,
SBD,F,Lisa Polkosnik,QC,122.4,84+,Open,150,75,160,385,Raw,18,
SBD,F,Lindsay Hollahan,NL,113.6,84+,Open,182.5,75,207.5,465,Raw,7,
SBD,F,Janine Hebert,AB,119.8,84+,Open,150,85,172.5,407.5,Raw,15,
SBD,F,Hailey Kostynuik,MB,131.9,84+,Open,245,117.5,227.5,590,Raw,2,
SBD,F,Gaïa Willis,AB,99.4,84+,Open,205,82.5,205,492.5,Raw,4,
SBD,F,Frances McGarry,ON,132.5,84+,Open,157.5,75,192.5,425,Raw,14,
SBD,F,Emilie Belanger,AB,153.6,84+,Open,185,100,217.5,502.5,Raw,3,
SBD,F,Christine Thorne,ON,104.1,84+,Open,177.5,102.5,195,475,Raw,6,
SBD,F,Christine Hearn,QC,96.3,84+,Open,137.5,80,170,387.5,Raw,17,
SBD,F,Catherine Filteau,ON,100.3,84+,Open,170,85,177.5,432.5,Raw,12,
SBD,F,Brittany Schlater,ON,118.5,84+,Open,247.5,125.5,235.5,608.5,Raw,1,
SBD,F,Ann Brissett,ON,98.8,84+,Open,132.5,72.5,152.5,357.5,Raw,20,
SBD,F,Amanda Bristol,SK,97.4,84+,Open,162.5,87.5,185,435,Raw,11,
SBD,F,Aisling Lynch,QC,106.8,84+,Open,137.5,80,165,382.5,Raw,19,
SBD,F,Aileen Bishop,AB,95.2,84+,Open,182.5,90,172.5,445,Raw,10,
SBD,F,Sara Cowan,ON,84,84,Open,200,110,212.5,522.5,Raw,1,
SBD,F,Rashenna Grzybowski,SK,80.6,84,Open,160,82.5,190,432.5,Raw,3,
SBD,F,Pamela Hodder,AB,75.5,84,Open,137.5,87.5,155,380,Raw,5,
SBD,F,Lou-Anne Stefankiw,SK,82.6,84,Open,125,70,167.5,362.5,Raw,7,
SBD,F,Letitia Marien,BC,79.1,84,Open,145,72.5,157.5,375,Raw,6,
SBD,F,Janadine Augustine,SK,79,84,Open,160,90,180,430,Raw,4,
SBD,F,Danielle Philibert,AB,81.5,84,Open,200,107.5,180,487.5,Raw,2,
SBD,M,Tyler Wasyluk,AB,81.7,83,Open,227.5,167.5,272.5,667.5,Raw,8,
SBD,M,Taro Yamashita,ON,82.8,83,Open,220,140,280,640,Raw,15,
SBD,M,Sylvain Paradis,ON,81.7,83,Open,220,160,260,640,Raw,13,
SBD,M,Simon Chang,ON,82.7,83,Open,257.5,182.5,287.5,727.5,Raw,4,
SBD,M,Scott Marion,ON,82,83,Open,190,115,232.5,537.5,Raw,29,
SBD,M,Ryan MacLellan,BC,81.5,83,Open,192.5,175,255,622.5,Raw,20,
SBD,M,Roland Sae,ON,81.6,83,Open,240,155,252.5,647.5,Raw,12,
SBD,M,Quentin Chan,ON,82.4,83,Open,235,157.5,242.5,635,Raw,18,
SBD,M,Nick Bray,ON,81.9,83,Open,210,145,285,640,Raw,14,
SBD,M,Naeem Rohani,PE,80,83,Open,215,115,265,595,Raw,25,
SBD,M,Michael Chan,MB,81.1,83,Open,215,155,282.5,652.5,Raw,11,
SBD,M,Matthew Johnson #5,ON,81.3,83,Open,225,142.5,247.5,615,Raw,21,
SBD,M,Mark Wasson,ON,82.7,83,Open,257.5,172.5,290,720,Raw,5,
SBD,M,Landon Noyes,SK,81.4,83,Open,207.5,137.5,255,600,Raw,24,
SBD,M,Kurt Kornelsen,MB,81.4,83,Open,212.5,150,275,637.5,Raw,16,
SBD,M,Kafui Hotsonyame,ON,81,83,Open,250,160,317.5,727.5,Raw,3,
SBD,M,Jordan Dang,ON,81.9,83,Open,232.5,155,290,677.5,Raw,7,
SBD,M,Jonathan Dupuis,QC,82.6,83,Open,220,167.5,242.5,630,Raw,19,
SBD,M,Jon Stewart,ON,81.8,83,Open,200,142.5,232.5,575,Raw,27,
SBD,M,Jean-Charles Renaud,ON,81.9,83,Open,210,140,205,555,Raw,28,
SBD,M,Jacky Wu,ON,82.4,83,Open,252.5,162.5,252.5,667.5,Raw,9,
SBD,M,Isaac Baik,ON,82.3,83,Open,273,175,300,748,Raw,1,
SBD,M,Guillaume LeBlanc,NB,79.6,83,Open,272.5,162.5,300,735,Raw,2,
SBD,M,Félix Gagnon,QC,81.8,83,Open,220,142.5,272.5,635,Raw,17,
SBD,M,Evan Collins,NL,82.9,83,Open,232.5,120,255,607.5,Raw,23,
SBD,M,Eric Dip,ON,81.9,83,Open,227.5,160,270,657.5,Raw,10,
SBD,M,Cody Remmig,ON,80.4,83,Open,225,120,247.5,592.5,Raw,26,
SBD,M,Bryce Thomson,BC,80,83,Open,260,135,287.5,682.5,Raw,6,
SBD,M,Bryan Wong #1,BC,82.6,83,Open,220,132.5,262.5,615,Raw,22,1993-08-31
SBD,M,Vincent Dion,QC,72.2,74,Open,210,150,240,600,Raw,7,1993-01-23
SBD,M,Philippe Gendron,QC,73.9,74,Open,205,117.5,265,587.5,Raw,10,
SBD,M,Malhar Sujay Patil,ON,73.4,74,Open,227.5,137.5,265,630,Raw,4,
SBD,M,Loc Nguyen,ON,72,74,Open,200,157.5,215,572.5,Raw,11,
SBD,M,Leo King,AB,73,74,Open,220,130,267.5,617.5,Raw,5,
SBD,M,Kris Tiller,NL,73.8,74,Open,192.5,170,230,592.5,Raw,9,
SBD,M,Justin Kwan,SK,72.3,74,Open,200,132.5,232.5,565,Raw,14,
SBD,M,Hieu Pham,ON,73,74,Open,200,117.5,217.5,535,Raw,18,
SBD,M,Gabriel Theriault,ON,73.5,74,Open,217.5,125,225,567.5,Raw,13,
SBD,M,Daniel Nhung,BC,73.2,74,Open,192.5,145,210,547.5,Raw,16,
SBD,M,Dale Stewart,ON,73.9,74,Open,235,150,215,600,Raw,8,
SBD,M,Conor DeMone,NS,72.9,74,Open,237.5,152.5,242.5,632.5,Raw,3,
SBD,M,Christian Alexis,ON,73.6,74,Open,180,125,237.5,542.5,Raw,17,
SBD,M,Cameron Preymack,SK,72.9,74,Open,225,160,267.5,652.5,Raw,2,
SBD,M,Ben Langley,ON,73.7,74,Open,242.5,157.5,262.5,662.5,Raw,1,
SBD,M,Asif Munir,ON,72.8,74,Open,217.5,122.5,225,565,Raw,15,
SBD,M,Antoine Vermette,QC,73.5,74,Open,187.5,122.5,200,510,Raw,19,
SBD,M,Allan Yeung,SK,72.9,74,Open,225,152.5,237.5,615,Raw,6,
SBD,M,Aaron Sun,ON,73.3,74,Open,200,137.5,230,567.5,Raw,12,
SBD,F,Victoria Clayton,BC,66.3,72,Open,155,85,175,415,Raw,7,
SBD,F,Valérie Lemay,QC,70.6,72,Open,155,90,172.5,417.5,Raw,6,
SBD,F,Shannon Graszat,ON,68.5,72,Open,142.5,67.5,165,375,Raw,14,
SBD,F,Milena Battista,QC,70.1,72,Open,147.5,70,142.5,360,Raw,18,
SBD,F,Melissa Skehans,NL,70.3,72,Open,122.5,67.5,155,345,Raw,22,
SBD,F,Melissa Hernandez,QC,70.2,72,Open,155,82.5,195,432.5,Raw,3,
SBD,F,Melissa Garron,NS,70.8,72,Open,160,92.5,175,427.5,Raw,5,
SBD,F,Megan Clumpus,ON,69.7,72,Open,145,90,152.5,387.5,Raw,12,
SBD,F,Maria Taccone,ON,71.6,72,Open,150,90,160,400,Raw,9,
SBD,F,Lydia North,AB,70.2,72,Open,117.5,90,75,282.5,Raw,26,
SBD,F,Kristine Adams,ON,71,72,Open,165,90,157.5,412.5,Raw,8,
SBD,F,Kim Gill,NL,70.4,72,Open,137.5,65,155,357.5,Raw,19,
SBD,F,Kelly Winter,ON,69.8,72,Open,135,82.5,152.5,370,Raw,16,
SBD,F,Kate Payette,SK,70.1,72,Open,117.5,80,145,342.5,Raw,23,
SBD,F,Karina Calaminos,BC,71.2,72,Open,127.5,62.5,145,335,Raw,25,
SBD,F,Jingwen Cao,QC,69.3,72,Open,137.5,85,152.5,375,Raw,15,
SBD,F,Jessica Buettner,SK,71.6,72,Open,190,97.5,231.5,519,Raw,1,
SBD,F,Jessica Bill,BC,69.7,72,Open,147.5,92.5,157.5,397.5,Raw,10,
SBD,F,Denae Swadden,BC,67.7,72,Open,115,77.5,160,352.5,Raw,20,
SBD,F,Danielle Reid-Clavelle,AB,70.7,72,Open,167.5,82.5,182.5,432.5,Raw,4,
SBD,F,Courtney Shaw,AB,70.1,72,Open,132.5,57.5,145,335,Raw,24,
SBD,F,Claudine Smith,ON,70.7,72,Open,142.5,75,130,347.5,Raw,21,
SBD,F,Candice O'Donnell,ON,68.5,72,Open,135,82.5,172.5,390,Raw,11,
SBD,F,Angela Welch,BC,71.3,72,Open,137.5,77.5,152.5,367.5,Raw,17,
SBD,F,Alyssa Smith #1,ON,71.5,72,Open,193,100,210,503,Raw,2,
SBD,F,Alexa Sperske,AB,69.4,72,Open,145,70,162.5,377.5,Raw,13,
SBD,M,Spencer Galipeau,ON,64.9,66,Open,167.5,120,210,497.5,Raw,7,
SBD,M,Ryan Kolesar,MB,64.2,66,Open,190,122.5,230,542.5,Raw,3,
SBD,M,Mujeeb Salim,ON,65.7,66,Open,185,135,222.5,542.5,Raw,4,
SBD,M,Mark Tobias,ON,65.7,66,Open,240,132.5,262.5,635,Raw,1,
SBD,M,Leng Tang,ON,64.9,66,Open,190,147.5,230,567.5,Raw,2,
SBD,M,Kelvin Suen,ON,64.1,66,Open,195,140,205,540,Raw,5,
SBD,M,Craig Latendresse,ON,65,66,Open,170,135,197.5,502.5,Raw,6,
SBD,F,Teresa Parsons,AB,62.8,63,Open,160,100,175,435,Raw,2,
SBD,F,Sarah Leahy,ON,62,63,Open,105,60,135,300,Raw,23,
SBD,F,Roselle Mary S Lucero,ON,62.6,63,Open,142.5,72.5,167.5,382.5,Raw,9,
SBD,F,Phoebe Mannell,ON,59.7,63,Open,140,105,155,400,Raw,6,
SBD,F,Phoebe Cullingham,ON,57.8,63,Open,150,95,170,415,Raw,5,
SBD,F,Paige Kearney,ON,61.5,63,Open,122.5,65,135,322.5,Raw,18,
SBD,F,Naja Ronzetti,QC,61.3,63,Open,130,75,150,355,Raw,14,
SBD,F,Nadia Alayoubi,QC,62.3,63,Open,135,75,175,385,Raw,8,
SBD,F,Miriam Schwabe,ON,61.6,63,Open,135,80,152.5,367.5,Raw,11,
SBD,F,Michelle Deruelle,NS,62.9,63,Open,115,65,137.5,317.5,Raw,20,
SBD,F,Maria Htee,NL,59.9,63,Open,185.5,105,192.5,483,Raw,1,
SBD,F,Lorraine Yeung,ON,60.8,63,Open,140,70,160,370,Raw,10,
SBD,F,Lisa Barkey,ON,61.9,63,Open,110,60,147.5,317.5,Raw,19,
SBD,F,Leah Mamane,QC,60.8,63,Open,157.5,90,180,427.5,Raw,3,
SBD,F,Krista Sali,SK,62.3,63,Open,132.5,57.5,157.5,347.5,Raw,15,
SBD,F,Jill Cann,ON,62.5,63,Open,130,80,150,360,Raw,13,
SBD,F,Jamie Gesualdo,ON,61.4,63,Open,120,70,147.5,337.5,Raw,17,
SBD,F,Hannah Orser,ON,61.1,63,Open,107.5,60,137.5,305,Raw,22,
SBD,F,Élodie Morin,QC,62.1,63,Open,152.5,95,172.5,420,Raw,4,
SBD,F,Destiny Kaus,SK,62,63,Open,115,70,115,300,Raw,24,
SBD,F,Catherine Laprise,QC,62.7,63,Open,105,62.5,142.5,310,Raw,21,
SBD,F,Cassie Peralta,ON,59.1,63,Open,127.5,70,145,342.5,Raw,16,
SBD,F,Bianca Cruz,ON,60.7,63,Open,140,65,155,360,Raw,12,
SBD,F,Alicia MacDougall,ON,62.2,63,Open,140,85,162.5,387.5,Raw,7,
SBD,M,Serge Gauthier,QC,54,59,Open,172.5,112.5,192.5,477.5,Raw,3,
SBD,M,David Lee,BC,58.2,59,Open,172.5,107.5,202.5,482.5,Raw,2,
SBD,M,Benjamin Yu,BC,58.2,59,Open,175,130.5,192.5,498,Raw,1,
SBD,M,Alvin Chou,SK,57.8,59,Open,157.5,125,182.5,465,Raw,4,
SBD,F,Yordanos Tessema,ON,55.3,57,Open,117.5,72.5,182.5,372.5,Raw,4,
SBD,F,Vanessa Choy,AB,55.9,57,Open,125,72.5,130,327.5,Raw,9,
SBD,F,Teresa Yeung,ON,55.9,57,Open,157.5,97.5,172.5,427.5,Raw,1,
SBD,F,Stephanie Earl,ON,56.1,57,Open,125,85,147.5,357.5,Raw,7,
SBD,F,Samantha Fung,AB,56.8,57,Open,115,60,115,290,Raw,15,
SBD,F,Maria Mullaly,NL,55,57,Open,107.5,65,135,307.5,Raw,12,
SBD,F,Maggie Rafferty,ON,56.2,57,Open,145,87.5,160,392.5,Raw,2,
SBD,F,Jessica Halcovitch,NB,52.8,57,Open,130,75,137.5,342.5,Raw,8,
SBD,F,Jenna Sabino,BC,56.8,57,Open,145,77.5,160,382.5,Raw,3,
SBD,F,Erin Ashbacher,AB,56.2,57,Open,112.5,77.5,125,315,Raw,10,
SBD,F,Cynthia Vo,ON,55.9,57,Open,127.5,80,162.5,370,Raw,6,
SBD,F,Cynthia Leighton,BC,56,57,Open,132.5,82.5,157.5,372.5,Raw,5,
SBD,F,Colleen O'Toole,BC,56.3,57,Open,115,75,125,315,Raw,11,
SBD,F,Chelsey Soverall,ON,53.8,57,Open,102.5,60,130,292.5,Raw,14,
SBD,F,Andrea Paradis,ON,56.1,57,Open,100,57.5,140,297.5,Raw,13,
SBD,F,Trish Barbero,ON,51.9,52,Open,100,60,132.5,292.5,Raw,9,
SBD,F,Sangeetha Jeyabalasingam,ON,51.1,52,Open,122.5,52.5,157.5,332.5,Raw,5,
SBD,F,Sabrina Trudel,QC,51.4,52,Open,120,62.5,137.5,320,Raw,6,
SBD,F,Rebecca Ubhi,QC,50.9,52,Open,97.5,50,105,252.5,Raw,11,
SBD,F,Nicola Paviglianiti,ON,51.3,52,Open,140,72.5,157.5,370,Raw,3,
SBD,F,Natalie Hui,ON,51.5,52,Open,120,82.5,152.5,355,Raw,4,
SBD,F,Mymy Le,QC,51.3,52,Open,92.5,65,122.5,280,Raw,10,
SBD,F,Monica Dip,ON,51.3,52,Open,142.5,75,181.5,399,Raw,1,
SBD,F,Klarizze Montemayor,ON,51.6,52,Open,25,65,90,180,Raw,13,
SBD,F,Joanna Rieber,ON,51.4,52,Open,130,92.5,157.5,380,Raw,2,
SBD,F,Eden Esposo,ON,51.7,52,Open,115,60,137.5,312.5,Raw,7,
SBD,F,Chloe Banks,ON,51.5,52,Open,95,52.5,105,252.5,Raw,12,
SBD,F,Caroline Acoca,QC,51.2,52,Open,107.5,65,137.5,310,Raw,8,
SBD,F,Simone Lai,ON,46.2,47,Open,130,71,140,341,Raw,1,
SBD,F,Rafaela Kirloss,BC,45.5,47,Open,82.5,50,110,242.5,Raw,8,
SBD,F,Neeti Vashi,ON,46.5,47,Open,107.5,62.5,150,320,Raw,3,
SBD,F,Leah Dale,ON,46.6,47,Open,95,65,117.5,277.5,Raw,6,
SBD,F,Hannah Shin,AB,46.4,47,Open,110,47.5,120,277.5,Raw,5,
SBD,F,Denise Sopena,BC,47,47,Open,100,57.5,107.5,265,Raw,7,
SBD,F,Delaina Roul,NL,46.6,47,Open,117.5,62.5,152.5,332.5,Raw,2,
SBD,F,Chathurika Gamage,ON,46.4,47,Open,97.5,57.5,140,295,Raw,4,
SBD,M,Troy Martins,BC,149.4,120+,Open,270,177.5,285,732.5,Raw,13,
SBD,M,Trevor Greenwood,ON,137.9,120+,Open,285,190,295,770,Raw,11,1996-07-31
SBD,M,Tanner Braaten,BC,173.5,120+,Open,320,222.5,272.5,815,Raw,4,
SBD,M,Sharif Jomaa,ON,132.9,120+,Open,300,180,320,800,Raw,7,
SBD,M,Sean Hayes,BC,142.7,120+,Open,307.5,182.5,320,810,Raw,5,
SBD,M,Raymond Hickie,SK,142,120+,Open,310,207.5,290,807.5,Raw,6,
SBD,M,Mike Rudat,ON,146.4,120+,Open,310,237.5,290,837.5,Raw,3,
SBD,M,Kelly Branton,ON,165.4,120+,Open,427.5,265,320,1012.5,Raw,1,
SBD,M,Jason Byrne #1,ON,142.4,120+,Open,365,230,366,961,Raw,2,
SBD,M,Eric Brust,BC,164.8,120+,Open,295,192.5,302.5,790,Raw,8,
SBD,M,Chris McLaren-Almond,ON,134.7,120+,Open,262.5,175,317.5,755,Raw,12,
SBD,M,Bruno Boucher,QC,132.4,120+,Open,325,190,265,780,Raw,10,
SBD,M,Ben Borger,AB,173.3,120+,Open,300,185,300,785,Raw,9,
SBD,M,Andy Langin,NL,129,120+,Open,302.5,120,277.5,700,Raw,14,
SBD,M,Yaroslav Mormil,ON,119.3,120,Open,272.5,155,272.5,700,Raw,12,
SBD,M,Terrence Mendes,NS,118.1,120,Open,275,200,305,780,Raw,8,
SBD,M,Stephen Domacina,ON,117.3,120,Open,282.5,220,310,812.5,Raw,5,
SBD,M,Mickael Cloutier,QC,119.3,120,Open,330,222.5,320,872.5,Raw,2,
SBD,M,Marc Cardinal,QC,118.3,120,Open,300,192.5,372.5,865,Raw,3,
SBD,M,Laine Jackart,BC,119.2,120,Open,250,150,285,685,Raw,14,
SBD,M,Kerry Dennison,ON,116.4,120,Open,290,195,355,840,Raw,4,
SBD,M,Kade Weber,ON,118.9,120,Open,275,187.5,320,782.5,Raw,7,
SBD,M,Joan Qendro,QC,107.1,120,Open,257.5,165,270,692.5,Raw,13,
SBD,M,Gregory Harris,QC,118,120,Open,245,167.5,260,672.5,Raw,16,
SBD,M,Ford McKeown,ON,119.5,120,Open,257.5,167.5,252.5,677.5,Raw,15,
SBD,M,Erik Willis,ON,119.9,120,Open,330,231,345,906,Raw,1,
SBD,M,David Fortin,QC,117.8,120,Open,280,200,262.5,742.5,Raw,10,
SBD,M,Braden Southern,ON,117.6,120,Open,285,172.5,305,762.5,Raw,9,
SBD,M,Austyn Ryan,ON,111.1,120,Open,302.5,192.5,305,800,Raw,6,
SBD,M,Angus Lennox,BC,119.1,120,Open,267.5,180,280,727.5,Raw,11,
SBD,M,Walter Cariazo,ON,99.1,105,Open,277.5,190,332.5,800,Raw,1,
SBD,M,Taylor Woolnough,ON,100.5,105,Open,230,150,250,630,Raw,18,
SBD,M,Taylor Shadgett,ON,103.3,105,Open,300,167.5,292.5,760,Raw,5,
SBD,M,Shawn Brooks #1,ON,99.5,105,Open,235,150,280,665,Raw,14,
SBD,M,Ryan Gallo #1,BC,102,105,Open,240,162.5,275,677.5,Raw,12,
SBD,M,Paul Marshall,ON,103.4,105,Open,280,180,305,765,Raw,3,
SBD,M,Nick Longo,ON,101.9,105,Open,280,170,302.5,752.5,Raw,6,
SBD,M,Mike Crowe,AB,103.9,105,Open,232.5,162.5,270,665,Raw,15,
SBD,M,Matt Allen,SK,104.1,105,Open,272.5,130,180,582.5,Raw,20,
SBD,M,Mark Webster,ON,98.9,105,Open,260,160,277.5,697.5,Raw,9,
SBD,M,Marc-Antoine Gosselin,QC,104.8,105,Open,260,182.5,325,767.5,Raw,2,
SBD,M,Leon Brown,ON,103.4,105,Open,282.5,220,262.5,765,Raw,4,
SBD,M,Kevin Farrell,NL,104.2,105,Open,225,140,247.5,612.5,Raw,19,
SBD,M,Jordan Profitt,NS,104.5,105,Open,250,152.5,265,667.5,Raw,13,
SBD,M,Jimmy Ha,ON,103.1,105,Open,265,162.5,252.5,680,Raw,11,
SBD,M,Jesse Harfield-Bailey,ON,102.1,105,Open,252.5,165,265,682.5,Raw,10,
SBD,M,Jean-Philip Robitaille,QC,101.5,105,Open,247.5,150,247.5,645,Raw,17,
SBD,M,Jason Bell,BC,104,105,Open,297.5,150,300,747.5,Raw,7,
SBD,M,Cory Johnson,NS,96.1,105,Open,205,147.5,295,647.5,Raw,16,
SBD,M,Alexander Pronchuk,AB,102.9,105,Open,252.5,160,300,712.5,Raw,8,
SBD,M,Jack Taylor #1,ON,91.1,93,Masters 4,142.5,85,165,392.5,Raw,1,
SBD,F,Ruby Koritarov,,102.6,84+,Masters 4,70.5,37.5,113.5,221.5,Raw,1,
SBD,F,Susan Haywood,,80.8,84,Masters 4,70,50,100,220,Raw,1,1949-07-03
SBD,M,Brian Desjarlais,SK,81.7,83,Masters 4,137.5,137.5,175,450,Raw,1,
SBD,M,Robert Caron,ON,73.1,74,Masters 4,92.5,65,107.5,265,Raw,1,
SBD,F,Janice Shulman,,50.3,52,Masters 4,60,37.5,92.5,190,Raw,1,
SBD,F,Yvonne Fournier,,43.2,47,Masters 4,57.5,32.5,65,155,Raw,1,
SBD,M,John Fraser,NS,88.9,93,Masters 3,182.5,130,225,537.5,Raw,2,
SBD,M,Jerry Marentette,ON,92.1,93,Masters 3,207.5,127.5,240,575,Raw,1,
SBD,M,Don Cormier,NL,85.9,93,Masters 3,200,105,170,475,Raw,4,
SBD,M,Dave Oulton,ON,92.1,93,Masters 3,197.5,97.5,220,515,Raw,3,
SBD,F,Sandra Nase,,101.8,84+,Masters 3,115.5,59,125,299.5,Raw,1,
SBD,F,Sylvia Gaucher,,81.8,84,Masters 3,102.5,57.5,130,290,Raw,3,
SBD,F,Stephanie Needham,,74.9,84,Masters 3,100,60,125,285,Raw,4,
SBD,F,Janet Martin,,83.9,84,Masters 3,110,57.5,150.5,318,Raw,2,
SBD,F,Arlene van Diepen,,77.3,84,Masters 3,107.5,57.5,153,318,Raw,1,
SBD,M,Ron Delaney,NS,82.5,83,Masters 3,170,115,237.5,522.5,Raw,1,
SBD,M,Pierre Quirouette,ON,82,83,Masters 3,140,105,175,420,Raw,3,
SBD,M,John MacQueen,AB,78.2,83,Masters 3,165,110,155,430,Raw,2,
SBD,M,Bernard Vachon,QC,72.3,74,Masters 3,210,82.5,230,522.5,Raw,1,
SBD,F,Mava Brydges,,71.5,72,Masters 3,97.5,63,112.5,273,Raw,1,
SBD,F,Allison Bernard-Mahadeo,,64.2,72,Masters 3,87.5,45,130,262.5,Raw,2,
SBD,M,Réjean Talon,QC,65.7,66,Masters 3,157.5,115,180,452.5,Raw,1,
SBD,F,Judy Gravel,,61.2,63,Masters 3,72.5,37.5,87.5,197.5,Raw,2,
SBD,F,Jo-Anne Larabie,,62.9,63,Masters 3,65,42.5,82.5,190,Raw,3,
SBD,F,Deb Ellard,,61.6,63,Masters 3,100,65.5,120,285.5,Raw,1,
SBD,F,Kim Crumpton,,54.6,57,Masters 3,72.5,52.5,125,250,Raw,1,
SBD,F,Janet Warne,,55.2,57,Masters 3,87.5,45,92.5,225,Raw,2,
SBD,F,Monica Ma,,42.8,47,Masters 3,60,35,90,185,Raw,1,
SBD,M,Ron Strong,ON,122,120+,Masters 3,232.5,162.5,280,675,Raw,1,
SBD,M,Brian Rock,BC,112.9,120,Masters 3,180,178,192.5,550.5,Raw,1,
SBD,M,Pierre Baillargeon,QC,99.4,105,Masters 3,160,127.5,210,497.5,Raw,4,
SBD,M,Miroslav Koprnicky,ON,100.7,105,Masters 3,182.5,147.5,205,535,Raw,1,
SBD,M,Martin Heenan,ON,102.2,105,Masters 3,170,107.5,200,477.5,Raw,5,
SBD,M,Jim Norton,ON,102.7,105,Masters 3,162.5,120,217.5,500,Raw,3,
SBD,M,Allen Profitt,PE,103.3,105,Masters 3,160,130,226,516,Raw,2,
SBD,M,Steven Reade,BC,90.3,93,Masters 2,202.5,170,255,627.5,Raw,1,
SBD,M,Craig Hirota,ON,91.6,93,Masters 2,207.5,140,250,597.5,Raw,2,
SBD,M,Claude Dallaire,QC,92.7,93,Masters 2,210,125,240,575,Raw,3,
SBD,F,Wendy Norton,,96.7,84+,Masters 2,122.5,65,167.5,355,Raw,4,
SBD,F,Wanda Lewis,,97.2,84+,Masters 2,132.5,70,185,387.5,Raw,2,
SBD,F,Jackie Buttnor,,129.4,84+,Masters 2,142.5,77.5,162.5,382.5,Raw,3,
SBD,F,Alisa Cutler,,124.2,84+,Masters 2,130,65,195.5,390.5,Raw,1,
SBD,F,Sharon McCarthy,,83,84,Masters 2,90,45,120,255,Raw,7,
SBD,F,Monica Wille,,81.3,84,Masters 2,97.5,85,152.5,335,Raw,4,1961-11-07
SBD,F,Marija Graham,,82.1,84,Masters 2,145,62.5,157.5,365,Raw,2,
SBD,F,Linda McFeeters,,82.8,84,Masters 2,85,62.5,137.5,285,Raw,6,
SBD,F,Linda Guillemette,,81.9,84,Masters 2,110,67.5,137.5,315,Raw,5,
SBD,F,Kim Milani,,81.2,84,Masters 2,130,72.5,160,362.5,Raw,3,
SBD,F,Katherine Lawrence,,79.6,84,Masters 2,151,72.5,157.5,381,Raw,1,
SBD,M,Sandro D'Angelo,ON,81.9,83,Masters 2,200,122.5,240,562.5,Raw,2,
SBD,M,Robert Monti,ON,81.8,83,Masters 2,160,125,187.5,472.5,Raw,3,
SBD,M,Jeff Becker,ON,82.4,83,Masters 2,220,140,260,620,Raw,1,
SBD,M,François Cazes,QC,72.7,74,Masters 2,160,102.5,205,467.5,Raw,1,
SBD,M,David Gurvey,MB,72.8,74,Masters 2,157.5,115,195,467.5,Raw,2,
SBD,F,Gayle Johnson,,71.9,72,Masters 2,118,71.5,152.5,342,Raw,1,
SBD,F,Cathy McDonald,,69.5,72,Masters 2,90,40,120,250,Raw,3,
SBD,F,Beverly Sharpe,,71.5,72,Masters 2,117.5,47.5,117.5,282.5,Raw,2,
SBD,M,Paul Smith,NL,66,66,Masters 2,130,60,198.5,388.5,Raw,1,
SBD,F,Renée Croteau-Paradis,,62.6,63,Masters 2,80,60,97.5,237.5,Raw,3,
SBD,F,Debbie Peever,,60.6,63,Masters 2,107.5,65,120,292.5,Raw,1,
SBD,F,Anne Graham,,61.2,63,Masters 2,110,50,120,280,Raw,2,
SBD,F,Meghan O'Connell,,55.7,57,Masters 2,75,45,92.5,212.5,Raw,3,
SBD,F,Jody McPeak,,55.8,57,Masters 2,120.5,65,150,335.5,Raw,1,
SBD,F,Anne Beaumaster,,56,57,Masters 2,90,32.5,107.5,230,Raw,2,
SBD,F,Jayne Egan,ON,51.1,52,Masters 2,109,63.5,135,307.5,Raw,1,
SBD,F,Janique Lafond,,49.9,52,Masters 2,107.5,50,110,267.5,Raw,2,1964-12-28
SBD,F,Heidi Schraft,,49.5,52,Masters 2,70,55,100,225,Raw,3,
SBD,F,Donna Radik,,50,52,Masters 2,80,45,87.5,212.5,Raw,4,
SBD,M,Mike Forster,ON,124.4,120+,Masters 2,237.5,127.5,262.5,627.5,Raw,1,
SBD,M,Harold Veilleux,QC,114.3,120,Masters 2,265,167.5,260,692.5,Raw,1,
SBD,M,David Holmes,ON,116.8,120,Masters 2,220,175,235,630,Raw,2,
SBD,M,Ron Corcoran,NL,102.3,105,Masters 2,172.5,115,197.5,485,Raw,3,
SBD,M,Leon Brown,ON,102.6,105,Masters 2,250,210,250,710,Raw,1,
SBD,M,Jacques Potvin,QC,101.5,105,Masters 2,225,170,242.5,637.5,Raw,2,
SBD,M,Mike Dickinson,ON,91.6,93,Masters 1,272.5,160,285,717.5,Raw,2,
SBD,M,Kevin Weiss,AB,91.6,93,Masters 1,225,152.5,245,622.5,Raw,3,
SBD,M,Brandon Summers,ON,92.1,93,Masters 1,273,205.5,267.5,746,Raw,1,
SBD,F,Tammie Ballinger,,113.5,84+,Masters 1,165,110,165,440,Raw,1,
SBD,F,Krista Sanger,,92,84+,Masters 1,160,82.5,172.5,415,Raw,2,
SBD,F,Jennifer Wessner,,97.4,84+,Masters 1,157.5,65,160,382.5,Raw,3,
SBD,F,Vicky Taylor-Hood,NL,82.7,84,Masters 1,172.5,82.5,195,450,Raw,1,
SBD,F,Sara-Jane Classen,,82.5,84,Masters 1,160,67.5,160,387.5,Raw,2,
SBD,F,Renae Witzaney,,79.6,84,Masters 1,137.5,77.5,145,360,Raw,5,
SBD,F,Kim Quig,,81,84,Masters 1,112.5,72.5,135,320,Raw,6,
SBD,F,Heather Unsworth,,82.7,84,Masters 1,145,70,165,380,Raw,3,
SBD,F,Carole Vachon,,80.5,84,Masters 1,130,82.5,162.5,375,Raw,4,
SBD,M,Ryan Lapadat,ON,82.4,83,Masters 1,207.5,130,283,620.5,Raw,1,
SBD,M,Robert King,NL,82.7,83,Masters 1,152.5,120,202.5,475,Raw,6,
SBD,M,Rob Dyke,NL,79.7,83,Masters 1,192.5,152.5,232.5,577.5,Raw,2,
SBD,M,Michael Chiola,NS,80.4,83,Masters 1,170,127.5,230,527.5,Raw,5,
SBD,M,Kevin Steiger,ON,80,83,Masters 1,185,112.5,257.5,555,Raw,4,
SBD,M,Cosmin Olteanu,BC,82,83,Masters 1,205,127.5,237.5,570,Raw,3,
SBD,M,Shiek Ali,NS,73.6,74,Masters 1,172.5,127.5,187.5,487.5,Raw,3,
SBD,M,Kojo Gyennin,AB,73.8,74,Masters 1,243,140,290,673,Raw,1,
SBD,M,Art Chan,ON,73.3,74,Masters 1,170,147.5,180,497.5,Raw,2,
SBD,F,Tracy Wise,,70.8,72,Masters 1,125,77.5,152.5,355,Raw,3,
SBD,F,Sarah Leighton,,70.8,72,Masters 1,165,98.5,177.5,441,Raw,1,
SBD,F,Peggy Brogaard,,71.6,72,Masters 1,122.5,47.5,142.5,312.5,Raw,8,
SBD,F,Leslie Stavenow,,71.5,72,Masters 1,159,85,175,419,Raw,2,
SBD,F,Leigh Anne Swayne,,69.3,72,Masters 1,112.5,62.5,150,325,Raw,5,
SBD,F,Kimberly Dorion,,69.2,72,Masters 1,112.5,52.5,120,285,Raw,9,
SBD,F,Janet Loesel Sitar,,70.9,72,Masters 1,110,75,157.5,342.5,Raw,4,
SBD,F,Glenda MacDonald,,70.3,72,Masters 1,115,60,150,325,Raw,6,
SBD,F,Glenda Brown,,69.8,72,Masters 1,125,52.5,145,322.5,Raw,7,
SBD,M,Lewis Noppers,AB,66,66,Masters 1,190,127.5,250,567.5,Raw,2,
SBD,M,Jean-Sébastien Rhéaume,QC,65.6,66,Masters 1,215,130,237.5,582.5,Raw,1,
SBD,M,Chris Aviado,ON,64.2,66,Masters 1,185,171.5,202.5,559,Raw,3,
SBD,F,Natasha Kvedaras,ON,62,63,Masters 1,135,85,155,375,Raw,1,
SBD,F,Michelle Harwood,,62.1,63,Masters 1,127.5,57.5,150,335,Raw,5,
SBD,F,Melanie Harris,,60.4,63,Masters 1,102.5,67.5,125,295,Raw,7,
SBD,F,Liz Vallee,,63,63,Masters 1,120,80,147.5,347.5,Raw,4,
SBD,F,Holly Lasante,,61.7,63,Masters 1,130,67.5,160,357.5,Raw,2,
SBD,F,Frances Manias,,62.6,63,Masters 1,125,77.5,155,357.5,Raw,3,
SBD,F,Andrea Kruchkowski,,61.8,63,Masters 1,92.5,50,127.5,270,Raw,8,
SBD,F,Amelie Vega,,61.7,63,Masters 1,120,72.5,137.5,330,Raw,6,
SBD,F,Wendy Yamazaki,,55.5,57,Masters 1,87.5,57.5,127.5,272.5,Raw,8,
SBD,F,Shelley Sandiford,,53.7,57,Masters 1,110,72.5,162.5,345,Raw,2,
SBD,F,Shauna Hammer,,55.8,57,Masters 1,100,57.5,110,267.5,Raw,9,
SBD,F,Lynn Wardle,,56.8,57,Masters 1,107.5,72.5,135,315,Raw,4,
SBD,F,Kelly Murray,,55.9,57,Masters 1,110,50,120,280,Raw,7,
SBD,F,Joanne Rose,,56.2,57,Masters 1,107.5,60,145,312.5,Raw,5,
SBD,F,Heather Ayles,PE,56.8,57,Masters 1,124.5,75,150,349.5,Raw,1,
SBD,F,Denise Royer,,56.3,57,Masters 1,120,72.5,130,322.5,Raw,3,
SBD,F,Danielle Hussey,,55.6,57,Masters 1,117.5,65,122.5,305,Raw,6,
SBD,F,Ellissa Hull,NL,46.6,47,Masters 1,120,65,160,345,Raw,1,
SBD,M,Michael Zivanovich,ON,156.5,120+,Masters 1,345,227.5,320.5,893,Raw,1,
SBD,M,Mario Sayeur,QC,144.1,120+,Masters 1,295,165,321,781,Raw,2,
SBD,M,Tim Nadeau,AB,117.2,120,Masters 1,227.5,125,260,612.5,Raw,8,
SBD,M,Stéphane Grimard,QC,117.7,120,Masters 1,245,180,247.5,672.5,Raw,5,
SBD,M,Scott Robertson,BC,118.2,120,Masters 1,285,210,270,765,Raw,2,
SBD,M,RJ Forbes,NB,118.3,120,Masters 1,262.5,172.5,265,700,Raw,4,
SBD,M,Peter Michaud,NB,116.4,120,Masters 1,240,155,260,655,Raw,6,
SBD,M,Patrick Talbot,QC,117.7,120,Masters 1,277.5,187.5,267.5,732.5,Raw,3,
SBD,M,Collin Pullar,SK,119.5,120,Masters 1,295,200,287.5,782.5,Raw,1,
SBD,M,Andrew Bennett,ON,119.6,120,Masters 1,215,150,250,615,Raw,7,
SBD,M,Ryan LaFortune,BC,102.7,105,Masters 1,232.5,140,267.5,640,Raw,2,
SBD,M,Randolph Cooke,ON,99.8,105,Masters 1,227.5,160,250,637.5,Raw,3,
SBD,M,Nick Doelman,ON,104.1,105,Masters 1,192.5,120,217.5,530,Raw,8,
SBD,M,Matthew MacKay,NS,94.8,105,Masters 1,207.5,137.5,255,600,Raw,6,
SBD,M,Mathieu Kuhn,MB,103,105,Masters 1,217.5,155,240,612.5,Raw,5,
SBD,M,Jim Derksen,AB,104.5,105,Masters 1,232.5,132.5,265,630,Raw,4,
SBD,M,Jeff Butt,NL,99.2,105,Masters 1,225,160,275,660,Raw,1,
SBD,M,Greg Medlock,ON,100.5,105,Masters 1,197.5,127.5,225,550,Raw,7,
SBD,M,Sam Byrne,NL,92.4,93,Juniors,262.5,152.5,262.5,677.5,Raw,5,
SBD,M,Priyan Menon,ON,89.8,93,Juniors,207.5,140,255,602.5,Raw,13,
SBD,M,Mohammed Darrat,ON,90.9,93,Juniors,235,140,245,620,Raw,11,
SBD,M,Matthew Lewis Vena,BC,90.5,93,Juniors,285,157.5,302.5,745,Raw,1,
SBD,M,Mathieu Kennedy,QC,89.7,93,Juniors,240,145,275,660,Raw,8,
SBD,M,Lucas Wiseman,NL,92.1,93,Juniors,212.5,120,280,612.5,Raw,12,
SBD,M,Liam Withers,ON,92,93,Juniors,262.5,177.5,280,720,Raw,3,
SBD,M,Landyn Hickmott,BC,89.4,93,Juniors,252.5,142.5,257.5,652.5,Raw,9,
SBD,M,Kyle Ho,ON,91.4,93,Juniors,237.5,127.5,257.5,622.5,Raw,10,
SBD,M,Kwaku Antwi,ON,91.2,93,Juniors,245,170,305,720,Raw,2,
SBD,M,Kevin Chau,ON,88.2,93,Juniors,250,147.5,265,662.5,Raw,7,
SBD,M,Justin Carinci,ON,86.8,93,Juniors,247.5,160,265,672.5,Raw,6,
SBD,M,Jordan Cruz,ON,91.3,93,Juniors,205,95,202.5,502.5,Raw,17,
SBD,M,Ilja Novickij,QC,87.1,93,Juniors,207.5,132.5,227.5,567.5,Raw,16,
SBD,M,Ian Seguin,ON,91.9,93,Juniors,280,157.5,280,717.5,Raw,4,
SBD,M,Allen Alora,ON,90.6,93,Juniors,255,132.5,210,597.5,Raw,15,
SBD,M,Adam Deibert,SK,88.2,93,Juniors,205,130,265,600,Raw,14,
SBD,F,Sydney Gubbels,ON,129.8,84+,Juniors,195,87.5,175,457.5,Raw,1,
SBD,F,Lindsay Nichols,ON,94.3,84+,Juniors,182.5,87.5,177.5,447.5,Raw,2,
SBD,F,Tori Paris,ON,78.9,84,Juniors,127.5,65,160,352.5,Raw,6,
SBD,F,Regan Baker,ON,81.4,84,Juniors,132.5,72.5,160,365,Raw,5,
SBD,F,Olivia Lim,BC,82.7,84,Juniors,155,80,192.5,427.5,Raw,3,
SBD,F,Krystyna Urbancic,NS,80.8,84,Juniors,157.5,82.5,190,430,Raw,2,
SBD,F,Jasmine Starman,AB,81.1,84,Juniors,162.5,87.5,162.5,412.5,Raw,4,
SBD,F,Gracelynn Doogan,ON,81.8,84,Juniors,177.5,85,175,437.5,Raw,1,
SBD,F,Anne Dorward,QC,81.3,84,Juniors,127.5,65,150,342.5,Raw,7,
SBD,M,Zoey Baker,SK,79.9,83,Juniors,195,120,227.5,542.5,Raw,14,
SBD,M,Thomas Johnston,SK,82.3,83,Juniors,205,130,245,580,Raw,12,
SBD,M,Paul Ionescu,ON,82.5,83,Juniors,215,117.5,265,597.5,Raw,10,
SBD,M,Nicholas Hayward,NL,82.8,83,Juniors,250,142.5,293,685.5,Raw,2,
SBD,M,Namca Nguyen,SK,78.8,83,Juniors,185,110,250,545,Raw,13,
SBD,M,Mobin Khan,ON,81.8,83,Juniors,170,115,180,465,Raw,18,
SBD,M,Mitchell Kraus,ON,82.3,83,Juniors,225,127.5,235,587.5,Raw,11,
SBD,M,Logan Tarasoff,BC,82.5,83,Juniors,255,152.5,265,672.5,Raw,3,
SBD,M,Jonah Litzenberger,SK,82.2,83,Juniors,205,110,207.5,522.5,Raw,16,
SBD,M,Gerrit Delver,SK,81.8,83,Juniors,207.5,110,207.5,525,Raw,15,
SBD,M,Fabien Bueno,QC,82.6,83,Juniors,220,130,270,620,Raw,5,
SBD,M,Carlos Garcés,QC,79.9,83,Juniors,210,147.5,255,612.5,Raw,6,
SBD,M,Brian Young,ON,80.9,83,Juniors,220,142.5,245,607.5,Raw,8,
SBD,M,Brandon Bruinsma,ON,82.5,83,Juniors,200,117.5,202.5,520,Raw,17,
SBD,M,Badi Haghighi,SK,81,83,Juniors,222.5,152.5,232.5,607.5,Raw,9,
SBD,M,Andrew Brown,ON,80.5,83,Juniors,215,127.5,265,607.5,Raw,7,
SBD,M,Andi Boka,ON,81.4,83,Juniors,207.5,185,255,647.5,Raw,4,
SBD,M,Adam Jansson,ON,80.3,83,Juniors,250,167.5,280,697.5,Raw,1,
SBD,M,Satveer Rai,BC,74,74,Juniors,187.5,117.5,247.5,552.5,Raw,10,
SBD,M,Reilly Lane,NL,71.8,74,Juniors,152.5,90,197.5,440,Raw,19,
SBD,M,Oliver Williams,BC,71.7,74,Juniors,195,105,237.5,537.5,Raw,12,
SBD,M,Olanrewaju Adeoye,ON,73.3,74,Juniors,264,125,272.5,661.5,Raw,2,
SBD,M,Nick Manders,AB,73.2,74,Juniors,230,130,270,630,Raw,5,
SBD,M,Nicholas Collins,NL,73.5,74,Juniors,200,117.5,202.5,520,Raw,15,
SBD,M,Nathan Jennings,ON,69.1,74,Juniors,162.5,112.5,227.5,502.5,Raw,18,
SBD,M,Luke Bermingham,ON,73.5,74,Juniors,230,127.5,240,597.5,Raw,6,
SBD,M,Louis-David Champagne,QC,72.8,74,Juniors,200,107.5,205,512.5,Raw,17,
SBD,M,Liam Wharton,BC,72.7,74,Juniors,205,145,240,590,Raw,7,
SBD,M,Khalil Kreidieh,QC,73.6,74,Juniors,200,115,200,515,Raw,16,
SBD,M,Joshua Romero,BC,71.5,74,Juniors,195,117.5,237.5,550,Raw,11,
SBD,M,Jory Litt-Jukes,SK,73.7,74,Juniors,200,115,210,525,Raw,13,
SBD,M,Ian Buck,ON,72.4,74,Juniors,192.5,120,250,562.5,Raw,9,
SBD,M,Frankie Pu,ON,72.9,74,Juniors,222.5,140,225,587.5,Raw,8,
SBD,M,François Pham,QC,73.9,74,Juniors,177.5,117.5,230,525,Raw,14,
SBD,M,Daniel Heintz,SK,73.3,74,Juniors,250,142.5,252.5,645,Raw,4,
SBD,M,Christopher Dang,ON,73.5,74,Juniors,217.5,155,277.5,650,Raw,3,
SBD,M,Blake Barrett,ON,73.2,74,Juniors,240,142.5,280,662.5,Raw,1,
SBD,F,Nada Hassan,ON,71.5,72,Juniors,162.5,105,195,462.5,Raw,1,
SBD,F,Marianne Groleau,QC,72,72,Juniors,160,80,185,425,Raw,2,
SBD,F,Lily Riggs,BC,69,72,Juniors,140,70,155,365,Raw,5,
SBD,F,Jenna Downie,NS,69.4,72,Juniors,135,65,185,385,Raw,4,
SBD,F,Ginann Rabah,ON,71.9,72,Juniors,155,90,152.5,397.5,Raw,3,
SBD,M,Tom Nguyen,ON,65.7,66,Juniors,200,115,235,550,Raw,3,
SBD,M,Tarineau Squire,ON,65.7,66,Juniors,175,110,185,470,Raw,8,
SBD,M,Luke Homer,ON,65.5,66,Juniors,250,125,270,645,Raw,1,
SBD,M,Jayms Kornelsen,MB,63.6,66,Juniors,160,107.5,205,472.5,Raw,7,
SBD,M,Dave Govico,ON,65.6,66,Juniors,210,137.5,260,607.5,Raw,2,
SBD,M,Dave Borrel,BC,65.2,66,Juniors,187.5,120,232.5,540,Raw,4,
SBD,M,Camron Li,ON,63.7,66,Juniors,190,107.5,237.5,535,Raw,5,
SBD,M,Alan Chung,AB,63.2,66,Juniors,170,95,235,500,Raw,6,
SBD,F,Serena DeSantis,ON,61.6,63,Juniors,150,70,155,375,Raw,4,
SBD,F,Mackenzie Rose,ON,60.5,63,Juniors,137.5,75,145,357.5,Raw,5,
SBD,F,Kirstie Armstead,SK,61.9,63,Juniors,145,80,167.5,392.5,Raw,3,1996-01-17
SBD,F,Justine Maltais,QC,62.6,63,Juniors,147.5,98,160,405.5,Raw,2,
SBD,F,Jessica Woodfine,NL,60.9,63,Juniors,112.5,50,157.5,320,Raw,7,
SBD,F,Fauve-Belle Bouchard,QC,61.7,63,Juniors,155,90,165,410,Raw,1,
SBD,F,Chantalle Cheung,ON,61.3,63,Juniors,135,80,137.5,352.5,Raw,6,
SBD,M,Yash Sharma,AB,57,59,Juniors,130,92.5,180,402.5,Raw,4,
SBD,M,Jonathan Kardash,QC,58.5,59,Juniors,155,107.5,152.5,415,Raw,3,
SBD,M,Derek Ng,ON,58.7,59,Juniors,182.5,100,265,547.5,Raw,1,
SBD,M,Darcy Ducharme,ON,57.8,59,Juniors,190,100,182.5,472.5,Raw,2,
SBD,F,Yvonne Chung,ON,56.1,57,Juniors,100,57.5,120,277.5,Raw,10,
SBD,F,Sophie Démoré,ON,55.7,57,Juniors,132.5,62.5,145,340,Raw,3,
SBD,F,Roxane Duguay,NB,56,57,Juniors,97.5,65,130,292.5,Raw,9,
SBD,F,Mikayla Lohse,SK,56.5,57,Juniors,127.5,60,137.5,325,Raw,5,
SBD,F,Marie-Li Dion,QC,55.6,57,Juniors,102.5,77.5,125,305,Raw,6,
SBD,F,Lulu Dib,ON,53.7,57,Juniors,105,52.5,115,272.5,Raw,11,
SBD,F,Leah Will,ON,54.5,57,Juniors,110,60,132.5,302.5,Raw,7,
SBD,F,Jessica Angelevski,ON,55.3,57,Juniors,115,55,160.5,330.5,Raw,4,
SBD,F,Hazel Mae Valdez Chan,ON,54.6,57,Juniors,102.5,47.5,112.5,262.5,Raw,12,
SBD,F,Grace Collins,AB,55.6,57,Juniors,115,57.5,125,297.5,Raw,8,
SBD,F,Cloé St-Hilaire,QC,56.8,57,Juniors,140,75,155,370,Raw,1,
SBD,F,Amanda Dodaro,ON,54.7,57,Juniors,137.5,65,160,362.5,Raw,2,
SBD,M,John Pineda,ON,52.8,53,Juniors,152.5,117.5,200,470,Raw,1,
SBD,F,Wiane Lac,ON,50.7,52,Juniors,105,62.5,142.5,310,Raw,5,
SBD,F,Veronique Cormier,NB,50.4,52,Juniors,112.5,62.5,137.5,312.5,Raw,4,
SBD,F,Tori LaPerriere,AB,51.9,52,Juniors,130,80.5,127.5,338,Raw,2,
SBD,F,Sarah Strickland,NL,51,52,Juniors,92.5,47.5,110,250,Raw,7,
SBD,F,Elizabeth Renaud,QC,51.6,52,Juniors,112.5,57.5,132.5,302.5,Raw,6,
SBD,F,Bindi Mehta,ON,51.3,52,Juniors,115,67.5,137.5,320,Raw,3,
SBD,F,Amélie Picher-Plante,QC,51,52,Juniors,125,80,145,350,Raw,1,
SBD,F,Tammy Hua,ON,45.7,47,Juniors,112.5,50,137.5,300,Raw,1,
SBD,M,Stefan Rufo,ON,123.8,120+,Juniors,295,165,280,740,Raw,2,
SBD,M,Erik Bender,ON,141.8,120+,Juniors,300,210,305,815,Raw,1,
SBD,M,Zack Chwok,AB,107.1,120,Juniors,295,187.5,275,757.5,Raw,1,
SBD,M,William Buhler,BC,116,120,Juniors,272.5,137.5,280,690,Raw,6,
SBD,M,Matthew Bannister,AB,116.2,120,Juniors,272.5,187.5,280,740,Raw,2,
SBD,M,Johnnel Naron,AB,114.3,120,Juniors,285,180,260,725,Raw,3,
SBD,M,Emanuel Vellios,ON,119.8,120,Juniors,210,155,242.5,607.5,Raw,7,
SBD,M,Dennis Tran,ON,119.2,120,Juniors,282.5,167.5,270,720,Raw,4,
SBD,M,Alexis Lacombe,QC,114,120,Juniors,265,155,295,715,Raw,5,
SBD,M,Ryan Dendy,ON,104.3,105,Juniors,260,127.5,287.5,675,Raw,4,
SBD,M,Miguel Archambault,QC,103.9,105,Juniors,197.5,117.5,207.5,522.5,Raw,11,
SBD,M,Michael O'Connor,ON,102.5,105,Juniors,237.5,117.5,242.5,597.5,Raw,10,
SBD,M,Matthew Lewis,ON,96.5,105,Juniors,235,145,240,620,Raw,9,
SBD,M,Luke Tremblay,ON,104.6,105,Juniors,305,195,307.5,807.5,Raw,2,
SBD,M,Logan Vessey,PE,103.1,105,Juniors,235,142.5,280,657.5,Raw,7,
SBD,M,Jordan Donato,ON,103.9,105,Juniors,275,170,302.5,747.5,Raw,3,
SBD,M,Enzo DiNuzzo,ON,103.9,105,Juniors,245,150,257.5,652.5,Raw,8,
SBD,M,David McNeil,AB,100.8,105,Juniors,227.5,160,285,672.5,Raw,5,
SBD,M,DJ Clarke,NL,102.4,105,Juniors,265,142.5,262.5,670,Raw,6,
SBD,M,Cameron St Amand,BC,104.4,105,Juniors,320,185,315,820,Raw,1,
B,M,John MacDonald,PE,92.9,93,Open,,200,,200,Single-ply,1,
B,F,Rebecca Adams,NL,84.8,84+,Open,,105,,105,Single-ply,1,
B,F,Alyssa Amanda Burg,MB,103.4,84+,Open,,95,,95,Single-ply,2,
B,F,Rhaea Stinn,SK,72.3,84,Open,,190,,190,Single-ply,1,
B,F,Marilyn Bernard,NL,82.6,84,Open,,92.5,,92.5,Single-ply,4,
B,F,Julia Young,NL,82.3,84,Open,,105,,105,Single-ply,3,
B,F,Angelina Van Ryswyk,AB,82.9,84,Open,,127.5,,127.5,Single-ply,2,
B,M,Marc Morris,SK,83,83,Open,,187.5,,187.5,Single-ply,1,
B,M,Chris Fudge,ON,81.8,83,Open,,172.5,,172.5,Single-ply,2,
B,M,Bronson Jacque,NL,80.7,83,Open,,170,,170,Single-ply,3,
B,M,Steve Doyle,NL,73.1,74,Open,,152.5,,152.5,Single-ply,1,
B,F,Kim Gill,NL,70,72,Open,,87.5,,87.5,Single-ply,1,
B,F,Annika Thiel,SK,70.8,72,Open,,80,,80,Single-ply,2,
B,M,Andrew Lang,BC,65.7,66,Open,,157.5,,157.5,Single-ply,1,
B,F,Maria Frank,AB,56.3,57,Open,,115.5,,115.5,Single-ply,1,
B,M,Ryan Stinn,SK,138.8,120+,Open,,150,,150,Single-ply,2,
B,M,Ryan Fowler,SK,138.6,120+,Open,,250,,250,Single-ply,1,
B,M,Shane Martin,AB,118.3,120,Open,,325,,325,Single-ply,1,
B,M,Garrett Cartwright-Bentley,ON,117.2,120,Open,,150,,150,Single-ply,2,
B,M,Leon Brown,ON,103.1,105,Open,,212.5,,212.5,Single-ply,1,
B,M,Chad Sinclair,NS,103.5,105,Open,,187.5,,187.5,Single-ply,2,
B,F,Susan Haywood,MB,81.4,84,Masters 4,,72.5,,72.5,Single-ply,1,1949-07-03
B,M,John Noguera,ON,90.1,93,Masters 3,,140,,140,Single-ply,2,
B,M,Jerry Marentette,ON,92.8,93,Masters 3,,165,,165,Single-ply,1,
B,M,Brian Rock,BC,113.4,120,Masters 3,,220,,220,Single-ply,1,
B,M,Daniel Royer,QC,104.2,105,Masters 3,,115,,115,Single-ply,1,
B,M,Gordon Sjodin,BC,92.8,93,Masters 2,,180,,180,Single-ply,1,
B,M,Claude Dallaire,QC,92.9,93,Masters 2,,130,,130,Single-ply,2,
B,M,Gary Lacoursiere,ON,72.3,74,Masters 2,,140,,140,Single-ply,1,
B,F,Bevery Sharpe,NL,71.7,72,Masters 2,,52.5,,52.5,Single-ply,1,
B,M,Jay McGrath,NL,63.7,66,Masters 2,,110,,110,Single-ply,1,
B,M,John Beres,ON,132.9,120+,Masters 2,,190,,190,Single-ply,1,
B,M,Barry Antoniow,ON,89.6,93,Masters 1,,232.5,,232.5,Single-ply,1,
B,F,Heather Unsworth,NL,85.6,84+,Masters 1,,77.5,,77.5,Single-ply,1,
B,F,Olga Sullivan,NL,82.7,84,Masters 1,,90,,90,Single-ply,2,
B,F,Dana Sandler,AB,82.8,84,Masters 1,,120.5,,120.5,Single-ply,1,
B,M,Shiek Ali,NS,76.7,83,Masters 1,,152.5,,152.5,Single-ply,1,
B,M,Robert King,NL,82.7,83,Masters 1,,145,,145,Single-ply,2,
B,M,Art Chan,ON,73,74,Masters 1,,140,,140,Single-ply,1,
B,F,Joanne Rose,NL,55.8,57,Masters 1,,72.5,,72.5,Single-ply,1,
B,M,Scott Robertson,BC,118.5,120,Masters 1,,245,,245,Single-ply,1,
B,M,Mehar Bhogal,BC,90.6,93,Juniors,,75,,75,Single-ply,1,
B,M,Jordan Hoang,AB,80.1,83,Juniors,,205.5,,205.5,Single-ply,1,
B,M,Owen Pite,BC,73.3,74,Juniors,,145,,145,Single-ply,1,
B,F,Kamille Lim,AB,72,72,Juniors,,105,,105,Single-ply,1,
B,F,Sarah Strickland,NL,51.4,52,Juniors,,60,,60,Single-ply,1,
B,M,Raphael Boutin,,65.8,66,Sub-Juniors,,131,,131,Raw,1,
B,M,Daniel Ferreira,,64.3,66,Sub-Juniors,,112.5,,112.5,Raw,2,
B,M,Daniel Ferreira,,64.3,66,Sub-Juniors,,110,,110,Raw,3,
B,M,Joel Cloutier,,101.5,105,Sub-Juniors,,102.5,,102.5,Raw,1,
B,M,Sumeet Sharma,,90.3,93,Open,,145,,145,Raw,4,
B,M,Robert Perry,,88.8,93,Open,,155,,155,Raw,3,
B,M,Jeremy Klaus,,88.3,93,Open,,157.5,,157.5,Raw,2,
B,M,Gabriel Aubé,,90.3,93,Open,,160,,160,Raw,1,
B,F,Rebecca Adams,,85.2,84+,Open,,75,,75,Raw,3,
B,F,Lexie Elias,,138.5,84+,Open,,92.5,,92.5,Raw,1,
B,F,Alyssa Amanda Burg,,103.6,84+,Open,,77.5,,77.5,Raw,2,
B,F,Pamela Hodder,,75.6,84,Open,,87.5,,87.5,Raw,2,
B,F,Julia Young,,82.6,84,Open,,90,,90,Raw,1,
B,M,Ryan MacLellan,,82.4,83,Open,,182.5,,182.5,Raw,1,
B,M,Chris Fudge,,82.7,83,Open,,140,,140,Raw,2,
B,M,Temitope Oloyede,,73.8,74,Open,,137.5,,137.5,Raw,3,
B,M,Sean Bouffard,,72.6,74,Open,,122.5,,122.5,Raw,4,
B,M,Nikkolas Trillo,,73.6,74,Open,,162.5,,162.5,Raw,1,
B,M,Loc Nguyen,,71.6,74,Open,,160,,160,Raw,2,
B,M,Jake Beaton,,72.3,74,Open,,100,,100,Raw,5,
B,F,Rhaea Stinn,,71.8,72,Open,,120.5,,120.5,Raw,1,
B,F,Melissa Skehans,,69.9,72,Open,,70,,70,Raw,6,
B,F,Megan Clumpus,,70.1,72,Open,,90,,90,Raw,3,
B,F,Maria Taccone,,71.5,72,Open,,90,,90,Raw,4,
B,F,Lydia North,,71.1,72,Open,,92.5,,92.5,Raw,2,
B,F,Angela Welch,,71.8,72,Open,,77.5,,77.5,Raw,5,
B,M,Kelvin Suen,,64.4,66,Open,,137.5,,137.5,Raw,1,
B,F,Teresa Yeung,,57.5,63,Open,,92.5,,92.5,Raw,2,
B,F,Phoebe Mannell,,60.9,63,Open,,104.5,,104.5,Raw,1,
B,F,Miriam Schwabe,,61.6,63,Open,,80,,80,Raw,4,
B,F,Abby Hall,,62.3,63,Open,,90,,90,Raw,3,
B,M,Benjamin Yu,,58.5,59,Open,,129.5,,129.5,Raw,1,
B,F,Phoebe Cullingham,,56.6,57,Open,,95,,95,Raw,1,
B,F,Maria Frank,,56.4,57,Open,,90,,90,Raw,2,
B,F,Jennifer McConnell,,56,57,Open,,75,,75,Raw,3,
B,F,Joanna Rieber,,51.4,52,Open,,70,,70,Raw,1,
B,M,Jason Klaus,,157.2,120+,Open,,202.5,,202.5,Raw,2,
B,M,Greg Young #3,,152.1,120+,Open,,240,,240,Raw,1,
B,M,Eric Brust,,155.8,120+,Open,,192.5,,192.5,Raw,3,
B,M,Tyler Jefferis,,119.3,120,Open,,195,,195,Raw,2,
B,M,Shane Martin,,117.1,120,Open,,237.5,,237.5,Raw,1,
B,M,Leon Brown,,103.2,105,Open,,200,,200,Raw,1,
B,M,James MacDonald #1,,101,105,Open,,147.5,,147.5,Raw,2,
B,M,Tilman Gallant,,82.3,83,Masters 4,,132.5,,132.5,Raw,2,
B,M,Brian Desjarlais,,81.6,83,Masters 4,,140,,140,Raw,1,
B,M,Réjean Dallaire,,116.5,120,Masters 4,,135.5,,135.5,Raw,1,
B,M,John Noguera,,89.4,93,Masters 3,,112.5,,112.5,Raw,2,
B,M,Jerry Marentette,,92.7,93,Masters 3,,127.5,,127.5,Raw,1,
B,F,Pat Kowal,,64.1,72,Masters 3,,63,,63,Raw,1,
B,F,Kim Crumpton,,54.7,57,Masters 3,,55,,55,Raw,1,
B,M,Edvins Ozolins,,109.9,120,Masters 3,,137.5,,137.5,Raw,3,
B,M,Brian Rock,,111.7,120,Masters 3,,177,,177,Raw,2,
B,M,Ben Worsell,,117.7,120,Masters 3,,177.5,,177.5,Raw,1,
B,M,Denis Cyr,,94.4,105,Masters 3,,125,,125,Raw,1,
B,M,Daniel Royer,,103.9,105,Masters 3,,105,,105,Raw,2,
B,M,Robert Truchon,,91.4,93,Masters 2,,117.5,,117.5,Raw,4,
B,M,Michael Wade,,91.9,93,Masters 2,,125,,125,Raw,2,
B,M,Gordon Sjodin,,92.6,93,Masters 2,,150,,150,Raw,1,
B,M,Claude Dallaire,,92.7,93,Masters 2,,122.5,,122.5,Raw,3,
B,F,Alisa Cutler,,123.7,84+,Masters 2,,65,,65,Raw,1,
B,M,Dean Smith,,82.3,83,Masters 2,,145,,145,Raw,1,
B,M,Gary Lacoursiere,,72.7,74,Masters 2,,120,,120,Raw,1,
B,M,François Cazes,,72.9,74,Masters 2,,102.5,,102.5,Raw,2,
B,M,David Hrynkow,,73.1,74,Masters 2,,92.5,,92.5,Raw,3,
B,F,Lisanne Glavin,,70.8,72,Masters 2,,65,,65,Raw,1,
B,F,Debbie Peever,,59.5,63,Masters 2,,55,,55,Raw,1,
B,F,Heidi Schraft,,48.7,52,Masters 2,,55,,55,Raw,1,
B,M,John Beres,,130.7,120+,Masters 2,,172.5,,172.5,Raw,1,
B,M,David Holmes,,117.2,120,Masters 2,,160,,160,Raw,1,
B,M,John Ralf,,101.3,105,Masters 2,,150,,150,Raw,1,
B,M,Barry Antoniow,,88.2,93,Masters 1,,160,,160,Raw,1,
B,F,Vicky Taylor-Hood,,82.9,84,Masters 1,,80,,80,Raw,2,
B,F,Olga Sullivan,,82.7,84,Masters 1,,65,,65,Raw,4,
B,F,Kim Quig,,80.2,84,Masters 1,,70,,70,Raw,3,
B,F,Dana Sandler,,83.3,84,Masters 1,,85,,85,Raw,1,
B,M,Robert King,,82.3,83,Masters 1,,125,,125,Raw,3,
B,M,Rob Dyke,,79.1,83,Masters 1,,152.5,,152.5,Raw,1,
B,M,John Lefuel,,78.2,83,Masters 1,,130,,130,Raw,2,
B,M,Todd Matthews,,72.7,74,Masters 1,,107.5,,107.5,Raw,3,
B,M,Shiek Ali,,73.3,74,Masters 1,,125,,125,Raw,2,
B,M,Art Chan,,72.7,74,Masters 1,,147.5,,147.5,Raw,1,
B,F,Jennifer Evans,,70.8,72,Masters 1,,57.5,,57.5,Raw,1,
B,F,Magdalena Kijak,,55.8,57,Masters 1,,86,,86,Raw,1,
B,M,RJ Forbes,,121.1,120+,Masters 1,,172.5,,172.5,Raw,1,
B,M,Scott Robertson,,118,120,Masters 1,,170,,170,Raw,1,
B,M,Tim Loreman,,99.3,105,Masters 1,,142.5,,142.5,Raw,2,
B,M,Randolph Cooke,,99.5,105,Masters 1,,152.5,,152.5,Raw,1,
B,M,John Buchanan,,98,105,Masters 1,,135,,135,Raw,3,
B,F,Amanda Wall,,70.3,72,Juniors,,85,,85,Raw,1,
B,F,Chantalle Cheung,,61.5,63,Juniors,,80,,80,Raw,1,
B,F,Marie-Li Dion,,55.2,57,Juniors,,72.5,,72.5,Raw,1,
B,F,Sarah Strickland,,51.4,52,Juniors,,45,,45,Raw,1,
